Company Name,First Name,Last Name,Email,Password,Service Tags,Phone,Address,City,State Id,Zip Code,Licence,User Type,Website Link
ABOUT SMILES DENTISTRY LLC,Thomas B Fahey ,,support@biolablogistics.com,123456,Dentistry,4109904700,507 S Cherry Grove Ave Ste A,Annapolis,25,21401,123456,1,http://aboutsmilesdentistry.com/
Annapolis Dental Care,Scott M. Steckler,,support@biolablogistics.com,123456,Dentistry,4102670766,101 Ridgely Ave Ste 12B,Annapolis,25,21401,123456,1,http://annapolisdentalcare.com/
Annapolis Green Dental,Gena Schultheis,,AnnapolisGreenDental@Gmail.com,123456,Dentistry,4109412194,2331 Forest Dr Ste E,Annapolis,25,21401,123456,1,http://annapolisgreendental.com/
"GOLDVARG, ARTHUR LEWIS DDS",Arthur Goldvarg,,agold2th@gmail.com,123456,Dentistry,4102882040, 1003 North Point Blvd Ste 601,Baltimore,25,21224,123456,1,http://arthurgoldvargdds.com/
Bayside Family Dentistry,Michael Allen,,baysidedentistry13@gmail.com    ,123456,Dentistry,4106477050,517 Benfield Rd Ste 204,Severna Park,25,21146,123456,1,http://baysidedentistry13.com/
P ROYA MADANI DDS PA,Parvin Madani,,charlesstreetdental@hotmail.com,123456,Dentistry,4102340020,338 N Charles St Fl 1st,Baltimore,25,21201,123456,1,http://charlesstreetdental.com/
Chesapeake Endodontic Center,Frank Parreira,,thebestendo@chesapeakeendo.com,123456,Dentistry,4102247556,888 Bestgate Rd Ste 213,Annapolis,25,21401,123456,1,http://chesapeakeendo.com/
Cross Keys Dental Associates,Douglas Clemens,,Crosskeysdental@comcast.net,123456,Dentistry,4104358400,2 Hamill Rd Ste 266,Baltimore,25,21210,123456,1,http://crosskeysdentalassociates.com/
David W. Handelsman,David W. Handelsman,,dr@davidwhandelsmandds.com,123456,Dentistry,4102683347,116 Cathedral St,Annapolis,25,21401,123456,1,http://davidwhandelsmandds.com/
Deitrick Family Dentistry,David R. Deitrick,,dr.deitrick@yourdentist.comcastbiz.net,123456,Dentistry,4106473883,815 Ritchie Hwy Ste 202,Severna Park,25,21146,123456,1,http://deitrickfamilydentistry.com/
Dental Designs of White Marsh,Liangkai Weng,,office@dentaldesignsofwhitemarsh.com,123456,Dentistry,4109319400,8114 Sandpiper Cir Ste 210,Nottingham,25,21236,123456,1,http://dentaldesignsofwhitemarsh.com/
Johns Hopkins Community Phys,Katherine G. Collier,,support@biolablogistics.com,123456,Dentistry,4105229800,1000 E Eager St,Baltimore,25,21202,123456,1,http://dentistry-baltimore.com/
Dr. Garcia and associates ,Nicholas R. Garcia,,schedule@drgarciadds.com,123456,Dentistry,4108370304,36 S Charles St Ste 2202,Baltimore,25,21201,123456,1,http://drgarciadds.com/
"Stephen B. Mastella, DMD & Associates",Stephen B. Mastella,,smastella@gmail.com,123456,Dentistry,4106852850,1030 N Charles St Ste 302,Baltimore,25,21201,123456,1,http://drmastella.net/
"EZ  Dental, LLC",,, EZDentalMD@gmail.com ,123456,Dentistry,4435463403,4785 Dorsey Hall Dr. #120,Ellicott City,25,21042,123456,1,http://ezdentalllc.comcastbiz.net/
Greater Baltimore Dental,Jon A. Lookingbill,,info@greaterbaltimoredental.com,123456,Dentistry,4108824100,2705 Proctor Ln,Baltimore,25,21234,123456,1,http://greaterbaltimoredental.com/
"Henrik L. Anderson, D.D.S.",Henrik Anderson,,support@biolablogistics.com,123456,Dentistry,4109236866,269B Peninsula Farm Road,Arnold,25,21012,123456,1,http://henriklandersondds.net/
"ANDREWS, ROBERT H JR DDS",John Ritter,,support@biolablogistics.com,123456,Dentistry,4102677901,104 Forbes St Ste 107,Annapolis,25,21401,123456,1,http://johndritterdmd.com/
HARBOR HEALTH CARE CENTER,Nicole C. Forel,,lightstreetdental@gmail.com,123456,Dentistry,4106590900,600 Light St,Baltimore,25,21230,123456,1,http://lightstreetdental.com/
LIBBY III LEWIS S DDS,Lewis Libby III,,admin@oslerdental.com,123456,Dentistry,4103211144,7600 Osler Dr Ste 100,Towson,25,21204,123456,1,http://oslerdental.com/
"Matthew Wallengren, D.D.S.",Matthew H. Wallengren,,info@mwdds.com ,123456,Dentistry,4104351234,600 Wyndhurst Ave Ste 270,Baltimore,25,21210,123456,1,http://rolandparkdentistry.com/
"Neil R. Woods, D.D.S.",Neil Woods,,info@neilrwoodsdds.com,123456,Dentistry,4106471800,156 Ritchie Hwy,Annapolis,25,21146,123456,1,http://severnaparkdentistry.com/
Silver Spring Dental Arts,Mellanie Thompson,,support@biolablogistics.com,123456,Dentistry,3013846776,12901 Tamarack Rd, Silver Spring,25,20902,123456,1,http://silverspringdentalarts.com/
Sarubin Family Dental,Daniel Sarubin,,drsarubin@baltimore-cosmetic-dentist.com,123456,Dentistry,4109898835,3110 Lord Baltimore Dr Ste 100,Baltimore,25,21244,123456,1,http://smilebaltimore.com/
"Dr. Alexandra T. Welzel, DMD",Alexandra Welzel,,support@biolablogistics.com,123456,Dentistry,4102351233,3900 N Charles St #112,Baltimore,25,21218,123456,1,http://smiledds.dentistryonline.com/
AGA FAMILY DENTISTRY,Priya Abraham,,thesmilefamily@gmail.com,123456,Dentistry,4107473163,1008 Ingleside Ave,Catonsville,25,21228,123456,1,http://www.agafamilydentistry.com/
Angel Dental Care,Maha Rice,,support@biolablogistics.com,123456,Dentistry,4102164004,200 Forbes St Ste 301,Annapolis,25,21401,123456,1,http://www.angeldentalcare.com/
ANGEL DENTAL CARE PROFESSIONAL,Hoda Jafari,,support@biolablogistics.com,123456,Dentistry,4436039000,200 Forbes St Ste 301,Annapolis,25,21401,123456,1,http://www.angeldentalcare.com/
"Janelle Love, MD",Janelle Love,,support@biolablogistics.com,123456,Dentistry,8007754902,"269 Peninsula Farm Road, Building 1 Suite D", Arnold,25,21012,123456,1,http://www.annapolisbioidenticalhormones.com/
Annapolis Towne Centre Dental Care,David E. Grimm ,,Paula.b@comcast.net,123456,Dentistry,4102666366,132 Holiday Ct. Suite 202 ,Annapolis,25,21401,123456,1,http://www.annapoliscompdentistry.com/
Grosshandler Barry,Barry Grosshandler,,support@biolablogistics.com,123456,Dentistry,4102632003,101 Ridgely Ave #22,Annapolis,25,21401,123456,1,http://www.annapoliscosmeticdentistinc.com/
BERGER MICHAEL J DDS,Michael Berger,,support@biolablogistics.com,123456,Dentistry,4102689336,20 Ridgely Ave Ste 306,Annapolis,25,21401,123456,1,http://www.annapolisdentalassociates.net/
CHESAPEAKE FAMILY DENTISTRY,Brittany Bergeron,,appointments@annapolisdentist.com,123456,Dentistry,4109904800,1610 West St Ste 202,Annapolis,25,21401,123456,1,http://www.annapolisdentist.com/
RULAND LOUIS J JR MD OFFICE,John Ruland,,support@biolablogistics.com,123456,Dentistry,4102685800,1616 Forest Dr Ste 6,Annapolis,25,21403,123456,1,http://www.annapolis-dentist.com/
Scott Finlay DDS & Associates,Scott W. Finlay,,support@biolablogistics.com,123456,Dentistry,4432764094,1460 Ritchie Hwy #203,Arnold,25,21012,123456,1,http://www.annapolisdentistdds.com/
ANNAPOLIS ENDODONTICS,Jeanartea Proctor,,office@annapolisendodontics.com,123456,Dentistry,4102684770,201 West St Ste 102,Annapolis,25,21401,123456,1,http://www.annapolisendodontics.com/
ORAL SURGERY SPECIALISTS,Christopher Chambers,,support@biolablogistics.com,123456,Dentistry,4102687790,275 West St Ste 100,Annapolis,25,21401,123456,1,http://www.annapolisoss.com/
"Ann E. Christopher, DDS",Ann Christopher,,support@biolablogistics.com,123456,Dentistry,4103277627,3209 Eastern Ave,Baltimore,25,21224,123456,1,http://www.annchristopherdds.com/
Advanced Dental Care,Omoteniola D. Awofolu,,info@baltimoredentaloffice.com,123456,Dentistry,4105250555,"3407 Wilkens Ave, Ste 205",Baltimore,25,21229,123456,1,http://www.baltimoredentaloffice.com/
Acosta & Associates Dental Practice,Victor Acosta,,support@biolablogistics.com,123456,Dentistry,4105582222, 250 S Broadway,Baltimore,25,21231,123456,1,http://www.baltimoredentista.com/
K. Michael Murphy & Associates,Dawn Merguerian,,support@biolablogistics.com,123456,Dentistry,4102351233,3900 N Charles St,Baltimore,25,21218,123456,1,http://www.baltimoreuptowndentist.com/
"Robert A. Jacobson, DDS",Mobeen Alvi,,support@biolablogistics.com,123456,Dentistry,4106655205,8109 Harford Rd,Parkville,25,21234,123456,1,http://www.baltobestdds.com/
BayCove Family and Cosmetic Dentistry,Joseph Benderson,,info@baycovedental.com,123456,Dentistry,4103849030,780 Ritchie Hwy # 30,Severna Park,25,21146,123456,1,http://www.baycovedental.com/
BERKISHAW ORTHODONTICS,Edwin Berkinshaw,,support@biolablogistics.com,123456,Dentistry,4102668880,129 Old Solomons Island Rd,Annapolis,25,21401,123456,1,http://www.berkinshaworthodontics.com/
BOYD & BOYD DENTISTRY PC,Veronica Massick,,boydandboyd@verizon.net,123456,Dentistry,4106261797,914 Bay Ridge Rd Ste 205,Annapolis,25,21403,123456,1,http://www.boydandboyd.com/
Brummer Orthodontics,Nicole C. Brummer,,support@biolablogistics.com,123456,Dentistry,4106715125,8320 Bellona Ave # 10B,Towson,25,21204,123456,1,http://www.brummerortho.com/
Village Dentistry,James Clagett,,jclagettdds@comcast.net,123456,Dentistry,4108591038,1608 W Furnace Branch Rd Ste 100,Glen Burnie,25,21061,123456,1,http://www.burwoodvillagedentistry.com/
Caton Dental,Nancy Wiener,,support@biolablogistics.com,123456,Dentistry,4102475566,1901 Hammonds Ferry Rd,Baltimore,25,21227,123456,1,http://www.catondental.com/
Chambers Family Dentistry ,Earl Chambers,,support@biolablogistics.com,123456,Dentistry,4102242660,621 Ridgely Ave Ste 206,Annapolis,25,21401,123456,1,http://www.chambersfamilydentistry.com/
Chase Brexton Health Services,Neuthan Rao,,information@chasebrexton.org,123456,Dentistry,4108372050,1001 Cathedral St,Baltimore,25,21201,123456,1,http://www.chasebrexton.org/
Cherry Family Dental,Dennis M. Cherry,,support@biolablogistics.com,123456,Dentistry,4107935802,900 Ritchie Hwy Ste 204,Severna Park,25,21146,123456,1,http://www.cherryfamilydental.com/
Crownsville Dental,Eric N. Rabovsky,,support@biolablogistics.com,123456,Dentistry,4432142068,1321 Generals Hwy Ste 200,Crownsville,25,21032,123456,1,http://www.crownsvilledental.com/
Dental One Associates of Annapolis,Tania Glidden,,support@biolablogistics.com,123456,Dentistry,4107934922,2623 Housley Rd,Annapolis,25,21401,123456,1,http://www.dentalone-md.com/
The Dental Studio,Paul Trintis,,support@biolablogistics.com,123456,Dentistry,4105742800,8510 Philadelphia Rd,Rosedale,25,21237,123456,1,http://www.dentalstudiomd.com/
Peartree denal care,Michael Zhou,,support@biolablogistics.com,123456,Dentistry,4103919565,9516 Philadelphia Rd,Baltimore,25,21237,123456,1,http://www.dentistinellicottcity.com/
Doring DDS,Kevin R. Doring,,doringdds@comcast.net,123456,Dentistry,4109562505,"3179 Braverton Street, Suite 100",Edgewater,25,21037,123456,1,http://www.doringdds.com/
"Comprehensive Dentistry, Baronas Mohler and Gens",Ryan R. Gens,,john@drbaronas.com,123456,Dentistry,4107472229,1122 N Rolling Rd,Catonsville,25,21228,123456,1,http://www.drbaronas.com/
Alan J. Binstock DDS,Alan Binstock,,support@biolablogistics.com,123456,Dentistry,4106476611,571 Baltimore Annapolis Blvd,Severna Park,25,21146,123456,1,http://www.drbinstock.com/
Collins Bross and associates,Nilda Collins,,support@biolablogistics.com,123456,Dentistry,4102240018,129 Lubrano Dr. Suite #300,Annapolis,25,21401,123456,1,http://www.drcollinsandassociates.com/
Hamilton Earl Kent DDS,Earl Hamilton,,earl@drhamiltonsgallery.com ,123456,Dentistry,4107602850,7704 Quarterfield Rd Ste F,Glen Burnie,25,21061,123456,1,http://www.drhamiltonsgallery.com/
Karl T Meek Family Dentistry,Karl T. Meek,,social@drkarlmeek.com,123456,Dentistry,4102564720,3904 E Joppa Rd,Baltimore,25,21236,123456,1,http://www.drkarlmeek.com/
KIM M ROSS DMD,Kim Ross,,support@biolablogistics.com,123456,Dentistry,4106267018,588 Bellerive Rd Ste 1A,Annapolis,25,21409,123456,1,http://www.drkimrossdmd.com/
"PAUL S. YI, D.D.S., P.A.",Paul S. Yi,,drpaulsyi@gmail.com,123456,Dentistry,4107663900,1414 Crain Hwy N Ste 2-A,Glen Burnie,25,21061,123456,1,http://www.drpaulyi.com/
Burt Robert J DDS,Robert Burt,,burtrobertdds@gmail.com,123456,Dentistry,4106335776,6201 Eastern Ave,Baltimore,25,21224,123456,1,http://www.drrobertburtdds.com/
Lutherville cosmetic and family dentristy,John A. Sawchuk,,doctor@drsawchuk.com,123456,Dentistry,4107699333,1407 York Rd Ste 308,Lutherville,25,21093,123456,1,http://www.drsawchuk.com/
"GEORGE R. SHEPLEY, DDS",George Shepley,,support@biolablogistics.com,123456,Dentistry,4108897100,711 W 40th St.  - Suite 213,Baltimore,25,21211,123456,1,http://www.drshepley.com/
DEREK SIEMON,Derek Siemon,,siemondds@gmail.com,123456,Dentistry,4102637338,1833 Forest Dr Ste G,Annapolis,25,21401,123456,1,http://www.drsiemon.com/
Valentine R Bauer DDS PA,Valentine Bauer,,drvalbauer@verizon.net,123456,Dentistry,4102164197,528 College Pkwy Ste A,Annapolis,25,21409,123456,1,http://www.drvalbauer.com/
Michael K Exler & Associates,Michael Exler,,info@easternfamilydentistry.com,123456,Dentistry,4103275488,3715 Eastern Ave,Baltimore,25,21224,123456,1,http://www.easternfamilydentistry.com/
KATHY J FARLEY & ASSOC,Kathryn Ehmann,,office@ehmanndds.com,123456,Dentistry,4102241105,600 Ridgely Ave Ste 217,Annapolis,25,21401,123456,1,http://www.ehmanndds.com/
COHEN ERIC J DDS,,,support@biolablogistics.com,123456,Dentistry,4108372525,1021 Light St,Baltimore,25,21230,123456,1,http://www.ericjcohendds.com/
Boston Street Dentistry,Eugene W. McCollum,,frontdesk@eugenemccollum.com,123456,Dentistry,4102764455,1501 S Clinton St Ste 335,Baltimore,25,21234,123456,1,http://www.eugenemccollum.com/
DAVID W HEESE DDS PA,James Kang,,support@biolablogistics.com,123456,Dentistry,4103216870,7600 Osler Dr Ste 410,Towson,25,21204,123456,1,http://www.everydentist.com/
Fetra Witting,Joseph Milzman,,staff@fedrawittingdds.com,123456,Dentistry,4108415400,175 Admiral Cochrane Dr Ste 103,Annapolis,25,21401,123456,1,http://www.fedrawittingdds.com/
Fiastro Dental,Eva Q. Fiastro,,beki@fiastrobaltimoredentist.com,123456,Dentistry,4107890551,4000 Annapolis Rd,Baltimore,25,21227,123456,1,http://www.fiastrobaltimoredentist.com/
Franklin Family Dental Care,Kyle J. Yoon,,franklindentalcare@gmail.com,123456,Dentistry,4105744616,9101 Franklin Square Dr Ste 315,Baltimore,25,21237,123456,1,http://www.franklinfamilydentalcare.com/
Gaily dentistry ,Gail Myers,,myersdds@comcast.net,123456,Dentistry,4103554422,205 E Patapsco Avenue,Brooklyn,25,21225,123456,1,http://www.gailmyersdentistry.com/
Gido Hornack ,Christopher Hornack,,gidodental@yahoo.com,123456,Dentistry,4102845513,7221 Holabird Ave,Dundalk,25,21222,123456,1,http://www.gidohornackdentist.com/
Goodman Dental Care,A Gary Goodman,,jeremyhgoodman@gmail.com,123456,Dentistry,4109340533,2530 Riva Rd Ste 201,Annapolis,25,21401,123456,1,http://www.goodmandentalcare.com/
Good Samaritan Dental & Surgical Associates,Sheldon Freed,,goodsamdental@hotmail.com,123456,Dentistry,4433307345,5601 Loch Raven Blvd,Baltimore,25,21239,123456,1,http://www.goodsamaritandental.com/
GOVANS FAMILY DENTAL CENTER,Darrin C. Davis,,support@biolablogistics.com,123456,Dentistry,4104330092,4805 York Rd,Baltimore,25,21212,123456,1,http://www.govansdentalcenter.com/
GROSSHANDLER BARRY DDS,Dennis Guard,,support@biolablogistics.com,123456,Dentistry,4102685751,101 Ridgely Ave Ste 22A,Annapolis,25,21401,123456,1,http://www.guardyoursmile.com/
Union Dental Center,Herbert B. Friedman,,UnionDentalCenter@gmail.com,123456,Dentistry,4109393950,201 S Union Ave,Havre de Grace,25,21078,123456,1,http://www.havredegracecosmeticdentist.com/
COSMETIC & IMPLANT DENTISTRY OF MARYLAND,Howard L. Rothschild,,4sudbrook@gmail.com,123456,Dentistry,4106028100,4 Sudbrook Ln,Baltimore,25,21208,123456,1,http://www.howardrothschilddds.com/
INNER HARBOR DENTAL ASSOCIATES,Naghmeh Pashmini,,support@biolablogistics.com,123456,Dentistry,4105280300,2 N Charles St Ste 130,Baltimore,25,21201,123456,1,http://www.innerharbordental.com/
"James C Georges, DSS",James Georges,,support@biolablogistics.com,123456,Dentistry,4106338787,5121 Eastern Ave,Baltimore,25,21224,123456,1,http://www.jamesgeorgesdds.com/
WELLER JAMES P DDS,James Weller,,support@biolablogistics.com,123456,Dentistry,4108281675,204 E Joppa Rd Ste L10,Towson,25,21286,123456,1,http://www.jpwellerdds.com/
RICHARD D KATZ DDS PA,Richard Katz,,drkatz@katzdentalgroup.com,123456,Dentistry,4102668250,43 Old Solomons Island Rd Ste 103,Annapolis,25,21401,123456,1,http://www.katzdentalgroup.com/
KAREN H KLOCKO DDS,Karen Klocko,, tmoore@klockodentistry.com,123456,Dentistry,4107217020,1375 Defense Hwy,Gambrills,25,21054,123456,1,http://www.klockodentistry.com/
Labbe Family Orthodontics,Stephen Labbe,, info@labbefamilyortho.com,123456,Dentistry,4439246627, 114 Forbes St,Annapolis,25,21401,123456,1,http://www.labbefamilyortho.com/
"Lawrence Chen, DDS",Shannon Erny,,support@biolablogistics.com,123456,Dentistry,4102358525,711 West 40th Street Suite 215,Baltimore,25,21211,123456,1,http://www.lawrencechendds.com/
CAPOZZOLI & SCHILDER,Robert Leigh,,leighfamilydental@gmail.com,123456,Dentistry,4102684945,104 Forbes St Ste 104,Annapolis,25,21401,123456,1,http://www.leighfamilydentistry.com/
"SEGERSTROM, JAMES PAUL DDS",Trevor Marshall,,support@biolablogistics.com,123456,Dentistry,4102679311,1831 Forest Dr. Suite J,Annapolis,25,21401,123456,1,http://www.lightpointdental.com/
"Joseph I. Frontera, DDS",Joseph I. Frontera,,support@biolablogistics.com,123456,Dentistry,4102521900,101 W Ridgely Rd Ste 3B,Lutherville Timonium,25,21093,123456,1,http://www.luthervillemddentist.com/
Philbin and Reinheimer Orthodontics,Ora Reinheimer,,braces@prortho.com,123456,Dentistry,4102635600,802 Bestgate Rd # B,Annapolis,25,21401,123456,1,http://www.marylandbraces.com/
Mayo Dental ,Puneeta Keer,,support@biolablogistics.com,123456,Dentistry,4109566626,55 Mayo Road,Edgewater,25,21037,123456,1,http://www.mayo-dental.com/
NAVAL HEALTH CLINIC ANNAPOLIS,Robert Arthur Jr,,support@biolablogistics.com,123456,Dentistry,4102932273,250 Wood Rd,Annapolis,25,21402,123456,1,http://www.med.navy.mil/
Maryland Primary Care Physicians,Nnemdi A. Baird,,support@biolablogistics.com,123456,Dentistry,4102665852,129 Lubrano Dr Ste 100,Annapolis,25,21401,123456,1,http://www.mpcp.com/
Northwood Dental Associates,Eugene H. Newman Sr,,support@biolablogistics.com,123456,Dentistry,4102028325,1900 E Northern Pkwy Ste 103,Baltimore,25,21239,123456,1,http://www.northwooddentalassoc.com/
RUSSELL F ONEAL JR DDS,Oneal Russell III,,support@biolablogistics.com,123456,Dentistry,4102634300,71 Amos Garrett Blvd,Annapolis,25,21401,123456,1,http://www.ofrdds.com/
Patton Smiles,Todd Patton,,info@pattonsmiles.com,123456,Dentistry,4102951000,104 Forbes St Ste 204,Annapolis,25,21401,123456,1,http://www.pattonsmiles.com/
Premiere Orthodontics,Marvin B. Ngwafon,,smile@premiereortho.com,123456,Dentistry,4436878013,2406 Garrison Blvd,Baltimore,25,21216,123456,1,http://www.premiereortho.com/
"Dr. Wendy Rose-Hyatt, DDS",Wendy Rose-Hyatt,,rosedaledental@comcast.net,123456,Dentistry,4106872777,8241 Philadelphia Rd,Rosedale,25,21237,123456,1,http://www.rosedaledental.net/
Padousis & Kaminaris,Evan N. Padousis,,rpadckam@yahoo.com,123456,Dentistry,4108666660,6304 Kenwood Ave # 5, Rosedale,25,21237,123456,1,http://www.rosedalefamilydentistry.com/
"J. Karl Sachs, D.D.S. Family & Cosmetic Dentistry",J K. Sachs,,info@sachsdds.com,123456,Dentistry,4103211544,100 E. Pennsylvania Ave.,Towson,25,21286,123456,1,http://www.sachsdds.com/
Dundalk Cosmetic & Family Dental: Sahni Manveen DDS,Manveen K. Sahni,,huang.rockville@gmail.com,123456,Dentistry,4102856380,5 Shipping Pl,Dundalk,25,21222,123456,1,http://www.samuelhuangdental.com/
LEIGH & LEIGH,Scott Smith,,support@biolablogistics.com,123456,Dentistry,4102557878,104 Forbes St Ste 203,Annapolis,25,21401,123456,1,http://www.scottmsmithdds.com/
Severn River Dental ,Amanda Canizales,,severnriverdental@yahoo.com,123456,Dentistry,4106474094,572 Ritchie Highway Suite F,Severna Park,25,21146,123456,1,http://www.severnriverdental.com/
CENTER FOR ADVANCED DENTISTRY,Kian Djawdan,,info@smileannapolis.com,123456,Dentistry,4102667645,200 Harry S Truman Pkwy Ste 210,Annapolis,25,21401,123456,1,http://www.smileannapolis.com/
SmileGardenDentalCenter,Erlinda E. Embuscado,,SmileGardenDentalCenter@gmail.com,123456,Dentistry,4103233990,731 Deepdene Rd,Baltimore,25,21210,123456,1,http://www.smilegardendentalcenter.com/
Trahar Orthodontics,Mary Trahar,, info@smilesbythebay.com,123456,Dentistry,4102802484,"716 Giddings Ave., Suite 31",Annapolis,25,21401,123456,1,http://www.smilesbythebay.com/
 The Tooth Place, Paul Deasey,,support@biolablogistics.com,123456,Dentistry,4106474269,22 Truck House Rd Ste 3,Severna Park,25,21146,123456,1,http://www.thetoothplace.com/
Temporomandibular Joint Dysfunction,Stephen Gamerman,,support@biolablogistics.com,123456,Dentistry,4105391155,107 W Saratoga St,Baltimore,25,21201,123456,1,http://www.tmjdoctorofmaryland.com/
"Keith Schmidt, DDS",Keith Schmidt,,info@towsonmddental.com ,123456,Dentistry,4435192405,40 York Rd #220,Baltimore,25,21204,123456,1,http://www.towsonmddental.com/
Dr. Rubeena Hosain Family Dentistry,Rubeena Hosain,,rubeenahosaindmdpa@gmail.com,123456,Dentistry,4103215960,1200 E Joppa Rd,Towson,25,21286,123456,1,http://www.towsonsdentist.com/
Towson smile care,H. Brett Friedman,,info@towsonsmilecare.com,123456,Dentistry,4102967599,8501 LaSalle Rd,Towson,25,21286,123456,1,http://www.towsonsmilecare.com/
Kuzmak Stephen M DDS,Stephen M. Kuzmak,,support@biolablogistics.com,123456,Dentistry,4102962388,7600 Osler Dr Ste 303,Towson,25,21204,123456,1,http://www.towsonview.com/
Vernon Pedriatic Dentristry,Maya Vernon,,support@biolablogistics.com,123456,Dentistry,4105444888,900 Ritchie Hwy Ste 101,Severna Park,25,21146,123456,1,http://www.vernonpediatricdentistry.com/
Waugh Chapel Dental,Robert Daly,,support@biolablogistics.com,123456,Dentistry,4436877536,1417 Paddocks Ct,Crownsville,25,21032,123456,1,http://www.waughchapeldental.com/
West Annapolis ,Jerry Berkow,,mary@westannapolisfamilydentistry.com,123456,Dentistry,4102633700,101 Ridgely Ave Ste 20,Annapolis,25,21401,123456,1,http://www.westannapolisfamilydentistry.com/
Zarbin Sergio C DMD PA,Sergio Zarbin,,szarbs@aol.com,123456,Dentistry,4103217150,1831 York Rd,Timonium,25,21093,123456,1,http://zarbindmdfamilydentistry.com/
Dr Melvena L Sherard DDS,Melvena L. Sherard,,support@biolablogistics.com,123456,Dentistry,4108373620,1 E Chase St,Baltimore,25,21202,123456,1,https://www.facebook.com/pages/Dr-Melvena-L-Sherard-DDS/186481161563064
Righttime Medical Care,Angelika Jahnigen,,support@biolablogistics.com,123456,Dentistry,8888086483,2114 Generals Highway,Annapolis,25,21401,123456,1,https://www.myrighttime.com
"Albert P Sindall, Do",Albert Sindall Jr,,montauk17@toadmail.toad.net,123456,Dentistry,4105444444,479 Jumpers Hole Rd Ste 201,Severna Park,25,21146,123456,1,biolablogistics.com
ANNAPOLIS FAMILY DENTISTRY,David Johnson,,support@biolablogistics.com,123456,Dentistry,4102677713,914 Bay Ridge Rd Ste 110,Annapolis,25,21403,123456,1,biolablogistics.com
ALBERT K LEE DDS,Edward Vesely,,support@biolablogistics.com,123456,Dentistry,4102685503,1606 Forest Dr,Annapolis,25,21403,123456,1,biolablogistics.com
RUSSELL JOHN T DDS,Roger Doyel,,support@biolablogistics.com,123456,Dentistry,4102687737,1116 West St,Annapolis,25,21401,123456,1,biolablogistics.com
Spencer Hopkins Jr DDS,Spencer Hopkins Jr,,support@biolablogistics.com,123456,Dentistry,4102630447,163 Conduit St Fl 1st,Annapolis,25,21401,123456,1,biolablogistics.com
NEIL W VANIK DDS PA,Neil W. Vanik,,support@biolablogistics.com,123456,Dentistry,4102685046,1610 McGuckian St,Annapolis,25,21401,123456,1,biolablogistics.com
"Joseph G. Handelman, DDS",Joseph Handelman,,support@biolablogistics.com,123456,Dentistry,4102792687,600 1st St,Annapolis,25,21403,123456,1,biolablogistics.com
Alireza Rajaei DSS,Alireza Rajaei,,support@biolablogistics.com,123456,Dentistry,4108415131,180 Admiral Cochrane Dr,Annapolis,25,21401,123456,1,biolablogistics.com
"MERCADO, MICHAEL M DDS PA",Michael Mercado,,support@biolablogistics.com,123456,Dentistry,4105730888,108 Old Solomons Island Rd Ste U10,Annapolis,25,21401,123456,1,biolablogistics.com
Lighthouse Family Dentistry,Miriam Christian-Meis,,support@biolablogistics.com,123456,Dentistry,4102244411,37 Old Solomons Island Rd,Annapolis,25,21401,123456,1,biolablogistics.com
"Deborah Rodriguez, DDS",Deborah Rodriguez,,support@biolablogistics.com,123456,Dentistry,4102227138,3 Harry S Truman Pkwy,Annapolis,25,21401,123456,1,biolablogistics.com
RITCHIE COURT OFFICE BUILDING,Jeffrey P. Cranska,,support@biolablogistics.com,123456,Dentistry,4109759331,877 Baltimore Annapolis Blvd Ste 305,Severna Park,25,21146,123456,1,biolablogistics.com
"Paul J. Kinsey D.D.S., P.A.",Paul J. Kinsey,,support@biolablogistics.com,123456,Dentistry,4105444012,515 Benfield Rd Ste 202,Severna Park,25,21146,123456,1,biolablogistics.com
CRANBERRY FAMILY DENTAL PRCTC,Rodney Floyd,,support@biolablogistics.com,123456,Dentistry,4109232586,1017 Generals Hwy,Crownsville,25,21032,123456,1,biolablogistics.com
Annapolis Dental Center,Kennedy Dele,,support@biolablogistics.com,123456,Dentistry,4105715014,161 Jennifer Rd Ste B,Annapolis,25,21401,123456,1,biolablogistics.com
BAY RIDGE HEALTH CARE CENTER,Wilfredo Gamez,,support@biolablogistics.com,123456,Dentistry,4102678653,900 Van Buren St,Annapolis,25,21403,123456,1,biolablogistics.com
Anesthesia Company LLC,Michael Webb ,,support@biolablogistics.com,123456,Dentistry,4102802260,700 Melvin Ave Ste 7,Annapolis,25,21401,123456,1,biolablogistics.com
AAMC Pediatric Hospitalist,Jeanne Defeo,,support@biolablogistics.com,123456,Dentistry,4434811000,1616 Forest Dr Ste 3,Annapolis,25,21403,123456,1,biolablogistics.com
LARRY H BANK DDS,Larry Bank,,support@biolablogistics.com,123456,Dentistry,4102333323,2116 W Pratt St,Baltimore,25,21223,123456,1,biolablogistics.com
ANTHONY H SCHWARTZ DDS,Anthony Schwartz,,support@biolablogistics.com,123456,Dentistry,4107324433,550 N Broadway Ste 406,Baltimore,25,21205,123456,1,biolablogistics.com
Canton Dental Associates,Emily Lin,,support@biolablogistics.com,123456,Dentistry,4106753300,2700 Lighthouse Pt E Ste 210,Baltimore,25,21224,123456,1,biolablogistics.com
Harbor East Dental,Marina R. Burdusi,,support@biolablogistics.com,123456,Dentistry,4103859966,1001 Fleet St Ste R,Baltimore,25,21202,123456,1,biolablogistics.com
KLEIMAN ALAN J DPM,William Leboe,,support@biolablogistics.com,123456,Dentistry,4106590616,5 E Henrietta St,Baltimore,25,21230,123456,1,biolablogistics.com
Larry Cohen DDS,Larry Cohen,,support@biolablogistics.com,123456,Dentistry,4107062704,650 W Baltimore St Rm 2208,Baltimore,25,21201,123456,1,biolablogistics.com
"SHELTON, GORDON BURTON DMD",Gordon Shelton,,support@biolablogistics.com,123456,Dentistry,4103211133,7402 York Rd Ste 303,Towson,25,21204,123456,1,biolablogistics.com
"POWELL, RICHARD C DDS",Richard Powell,,support@biolablogistics.com,123456,Dentistry,4108257793,1006 Dulaney Valley Rd,Towson,25,21204,123456,1,biolablogistics.com
Arthur Vail Jr DDS,Arthur Vail Jr,,support@biolablogistics.com,123456,Dentistry,4102425111,1327 Sulphur Spring Rd,Baltimore,25,21227,123456,1,biolablogistics.com
BURNETT SIDNEY O JR MD,Cassandra Burnett,,support@biolablogistics.com,123456,Dentistry,4106858753,1318 N Caroline St,Baltimore,25,21213,123456,1,biolablogistics.com
ADVENTURE DENTAL & VISION,Dawn Abousy,,support@biolablogistics.com,123456,Dentistry,4107274746,1253 W Pratt St,Baltimore,25,21223,123456,1,biolablogistics.com
ROOSEVELT BUSH DDS,Lisa Valentine,,support@biolablogistics.com,123456,Dentistry,4103837070,1111 Park Ave Ste 109,Baltimore,25,21201,123456,1,biolablogistics.com
STEVEN R VAUGHAN DDS,Steven Vaughan,,support@biolablogistics.com,123456,Dentistry,4107616100,30 Greenway St NW Ste 6,Glen Burnie,25,21061,123456,1,biolablogistics.com
Goldbeck Raymond E DDS,Raymond Goldbeck,,support@biolablogistics.com,123456,Dentistry,4103553433,3818 S Hanover St,Baltimore,25,21225,123456,1,biolablogistics.com
EDWARD J SATTLER DDS,Edward Sattler,,support@biolablogistics.com,123456,Dentistry,4102768056,336 S Patterson Park Ave,Baltimore,25,21231,123456,1,biolablogistics.com
Youniss Stephen T DDS,Stephen Youniss,,support@biolablogistics.com,123456,Dentistry,4105743666,19 Fontana Ln,Baltimore,25,21237,123456,1,biolablogistics.com
"DEMYAN, ALEX JR DDS",Alex Demyan Jr,,support@biolablogistics.com,123456,Dentistry,4107661020,20 Crain Hwy S,Glen Burnie,25,21061,123456,1,biolablogistics.com
Batchelor Adrian H DDS,Adrian Batchelor,,support@biolablogistics.com,123456,Dentistry,4109550053,50 N Broadway # 1001,Baltimore,25,21205,123456,1,biolablogistics.com
BLAKELY MAURICE W DDS,Maurice Blakely,,support@biolablogistics.com,123456,Dentistry,4109621617,1519 E North Ave,Baltimore,25,21213,123456,1,biolablogistics.com
KIMBERS DENTAL GROUP,Ricardo C. Kimbers,,support@biolablogistics.com,123456,Dentistry,4105232662,932 W North Ave,Baltimore,25,21217,123456,1,biolablogistics.com
Buckheit Jr Leonard DDS,Leonard Buckheit II,,support@biolablogistics.com,123456,Dentistry,4102351299,4102 Falls Rd,Baltimore,25,21211,123456,1,biolablogistics.com
Saul Gurney PA,Saul Gurney,,support@biolablogistics.com,123456,Dentistry,4102856180,1103 N Point Blvd Ste 403,Baltimore,25,21224,123456,1,biolablogistics.com
"HATCH, KENNETH L, D.P.M",Albert Tysor,,support@biolablogistics.com,123456,Dentistry,4102545255,6600 Belair Rd,Baltimore,25,21206,123456,1,biolablogistics.com
FRANK LINCOLN O DDS,Lincoln Frank,,support@biolablogistics.com,123456,Dentistry,4105740880,1233 Eastern Blvd,Essex,25,21221,123456,1,biolablogistics.com
Havrilak Samuel C DDS,Samuel Havrilak,,support@biolablogistics.com,123456,Dentistry,4106685035,2419 E Joppa Rd,Baltimore,25,21234,123456,1,biolablogistics.com
Mc Combe John M DDS,John McCombe,,support@biolablogistics.com,123456,Dentistry,4103377255,1205 York Rd # 31,Timonium,25,21093,123456,1,biolablogistics.com
MASON JR IRVING F DDS,Irving Mason Jr,,support@biolablogistics.com,123456,Dentistry,4102761535,3343 Belair Rd,Baltimore,25,21213,123456,1,biolablogistics.com
FAMILY DENTAL CARE,Naum Shats,,support@biolablogistics.com,123456,Dentistry,4107646998,6821 Reisterstown Rd Ste 201,Baltimore,25,21213,123456,1,biolablogistics.com
JOHNSON WILLIAM R DDS,William Johnson,,support@biolablogistics.com,123456,Dentistry,4107666464,420 Crain Hwy S Ste 5,Glen Burnie,25,21061,123456,1,biolablogistics.com
Datnoff Howard E DDS,Howard Datnoff,,support@biolablogistics.com,123456,Dentistry,4103583393,6821 Reisterstown Rd # 202,Baltimore,25,21215,123456,1,biolablogistics.com
Culbertson Bonnie L DDS,Bonnie Culbertson,,support@biolablogistics.com,123456,Dentistry,4108238823,1134 York Rd,Lutherville Timonium,25,21093,123456,1,biolablogistics.com
LEONARD L MARANTO DDS,Leonard Maranto,,support@biolablogistics.com,123456,Dentistry,4108233373,300 E Joppa Rd Ste 316,Towson,25,21286,123456,1,biolablogistics.com
NICHOLAS J MOLINARO D D S P A,Nicholas J Molinaro ,,support@biolablogistics.com,123456,Dentistry,4102420944,817 Maiden Choice Ln Ste 200,Catonsville,25,21228,123456,1,biolablogistics.com
Brooklyn Park Dental,Barry Levy,,support@biolablogistics.com,123456,Dentistry,4107895228,4801 Ritchie Hwy,Baltimore,25,21225,123456,1,biolablogistics.com
BIPIN KUMAR TURAKHIA MD PA,Michael Schwartz,,support@biolablogistics.com,123456,Dentistry,4107444444,1009 Frederick Rd,Catonsville,25,21228,123456,1,biolablogistics.com
Sunny Dental Laboratory Inc,Sunny Hong,,sunnydentallab@gmail.com,123456,Dentistry,301 956 0999,15720 Crabbs Branch Way #2c,Rockville,25,20855,123456,2,http://www.sunnydentallab.com/
Thomas Stone,Thomas Stone ,,randall@stonedentallab.com,123456,Dentistry,410 674 6065,381 Blossom Tree Drive,Annapolis,25,21409,123456,2, http://www.stonedentallab.com/
Discount Dental,T Hanson Hanson,,thanson24@ymail.com,123456,Dentistry,877 648 5433,PO Box 463,White Plains,25,20695,123456,2, www.lowerdental.com
Solano Dental Laboratory,Brian Solano,,info@solanolab.com,123456,Dentistry,240 274 2109,P.O. Box 402,Laurel,25,20725,123456,2, www.solanolab.com
Economy Dental Lab,Robert Andrew Jordan ,,jrdns@msn.com,123456,Dentistry,410 926 9600,8374 Capel Dr,Pasadena,25,21122,123456,2,economydentallab.com/
Ace Tech Dental Lab,Hyun Ahn,,support@wynkmarketing.com,123456,Dentistry,301 317 8676,13625 Baltimore Avenue,Laurel,25,20707,123456,2,http://acetechdental.com/
Bloom Rosanne DDS,Rosanne Bloom,,support@biolablogistics.com,123456,Dentistry,301 631 5860,130 Thomas Johnson Drive # 2,Frederick,25,21702,123456,2,http://brorthodontics.com/
De Conti Dentl Laboratory Inc,Mark Burke,,decontidental@gmail.com ,123456,Dentistry,301 740 2300,7830 Beechcraft Ave,Gaithersburg,25,20879,123456,2,http://decontidentallab.com/
DE Conti Dental Laboratories,Mark Burke,,decontidental@gmail.com ,123456,Dentistry,301 588 6754,7830 Beechcraft Avenue,Gaithersburg,25,20879,123456,2,http://decontidentallab.com/
Denture Lab,Robert Moses,,support@biolablogistics.com,123456,Dentistry,301 989 9384,13447 New Hampshire Avenue # 9,Silver Spring,25,20904,123456,2,http://denture-lab.com/
Maryland-Virginia Orthodontic,,, rayortho3@gmail.com,123456,Dentistry,301 490 6922 ,918 Fairlawn Ave, Laurel,25,20707,123456,2,http://drray4braces.com/
Brantley Dental Ceramic Studio,Julius Brantley,,support@biolablogistics.com,123456,Dentistry,301 434 2727,Silver Spring,Silver Spring,25,20903,123456,2,http://facebook.com/julius.brantley
Friendship Dental Lab Inc,Gus Diacoloukas,, info@friendshipdentallab.com ,123456,Dentistry,410 742 0372,8510 Philadelphia Rd.,Rosedale,25,21237,123456,2,http://friendshipdentallab.com/
Lakeside Dental,Lynn Nicolas,,lakesidedental9351@yahoo.com,123456,Dentistry,443 548 1300,9351 Lakeside Boulevard # 200,Owings Mills,25,21117,123456,2,http://lakesidentalmd.com/
LeeLynn Dental Lab,,,vlwhite632@live.com,123456,Dentistry,443 632 4673,1840 Hanniford Dr,Finksburg,25,21048,123456,2,http://LeeLynnDentallab.net
Littman Dental Laboratory Inc,Ron Gill,,support@biolablogistics.com,123456,Dentistry,410 486 0666,1209 Greenwood Road,Pikesville,25,21208,123456,2,http://littmandental.com/
Maryland L & L Dental Labs Inc,Robert Lilly,,support@biolablogistics.com,123456,Dentistry,410 485 6000,5200 Moravia Road,Baltimore,25,21206,123456,2,http://mdlldental.com/
Orthodyne Laboratories,Joseph Blankenshit,,orthodynelab@att.net,123456,Dentistry,301 279 0040,771 East Gude Drive,Rockville,25,20850,123456,2,http://orthodynelab.com/
Ortho Logistics Lab and Consulting,,,orthologisticslab@gmail.com,123456,Dentistry,443 618 7965,812 209th St,Pasadena,25,21122,123456,2,http://orthologistics.squarespace.com
Pro-Tech Dental Laboratory,Tom Beattie,,support@biolablogistics.com,123456,Dentistry,410 628 1344,13816 Jarrettsville Pike,Phoenix,25,21131,123456,2,http://pro-techdental.com/
Splendid Dental Lab,Eddie Randall,,info@splendiddentallab.com,123456,Dentistry,301 466 6323 ;844 310 4453,"2 Wisconsin Cir, Ste 700",Chevy Chase,25,20815,123456,2,http://splendiddentallab.com
Progressive Dentistry,Spencer St Cyr,,support@biolablogistics.com,123456,Dentistry,410 795 0101,6351 Oklahoma Road,Eldersburg,25,21784,123456,2,http://stcyrdds.com/
Uni Dental Studio,Jong Park,,support@biolablogistics.com,123456,Dentistry,410 381 2928,7130 Minstrel Way # 225,Columbia,25,21045,123456,2,http://unidentalstudio.com/
Veirs Dental Laboratory,Charles Veirs,,support@biolablogistics.com,123456,Dentistry,301 738 1980,14206 Hi Wood Drive,Rockville,25,20850,123456,2,http://veirs.com/
Arundel Dental Lab Inc,Donna Niesz ,,aamcnews@aahs.org,123456,Dentistry,443 481 1000 ,1203 West St # East,Annapolis,25,21401,123456,2,http://www.annearundeldiagnostics.com/
Cook Robert A DDS,Maryann Corrigan,,office@apadentistry.com,123456,Dentistry,410 268 7100,201 West St # 101,Annapolis,25,21401,123456,2,http://www.apadentistry.net/
Beltsville Family Dental Care,Suzanne Setayesh,,support@biolablogistics.com,123456,Dentistry,301 937 1472,11109 Baltimore Ave, Beltsville,25,20705,123456,2,http://www.beltsvilledentist.com/
"Best Dental Studio, Inc.",David Boteach,,Rachel@BestDentalStudio.com,123456,Dentistry,410 363 6233,22 Music Fair Rd,Owings Mills,25,21117,123456,2,http://www.bestdentalstudio.com/
Bowie Family Dental Care,James Lee,,support@biolablogistics.com,123456,Dentistry,301 540 3100,3060 Mitchellville Rd STE 105,Bowie,25,20716,123456,2,http://www.bowiefamilydentalcare.com/
Catonsville Wellness Center,Pamela Mauerhan ,,support@biolablogistics.com,123456,Dentistry,443 612 9004,2 East Rolling Crossroads # 157,Catonsville,25,21228,123456,2,http://www.catonsvillewellnesscenter.com/
Chesapeake Dental Arts,Meredith Esposito ,,support@biolablogistics.com,123456,Dentistry,410 757 6200,1509 Ritchie Highway # B,Arnold,25,21012,123456,2,http://www.chesdentalarts.com/
Dental Studio LLC,Paul Stergos Trintis ,,support@biolablogistics.com,123456,Dentistry,410 574 2800,8510 Philadelphia Road A,Baltimore,25,21237,123456,2,http://www.dentalstudiomd.com/
Dental Technology Center Inc,Steve Mc Namara,,admin@dentaltechnologycenter.com,123456,Dentistry,410 877 3625,2414 Pleasantville Road,Fallston,25,21047,123456,2,http://www.dentaltechnologycenter.com/
Hebbview Dental Laboratory, Randall Laronde,,support@biolablogistics.com,123456,Dentistry,410 277 0877 ,7343 Windsor Mill Rd,Baltimore,25,21244,123456,2,http://www.dentures-international.com/
Center For Dental Health In Washington,Eric Morison ,,info@DrEricMorrison.com,123456,Dentistry,202 537 7052,5454 Wisconsin Avenue # 675,Chevy Chase,25,20815,123456,2,http://www.drericmorrison.com/
Elite Dental Laboratory,Ivan Zaprinov,,vanio1919@gmail.com,123456,Dentistry,410 667 7773,3 Hillside Ave,Cockeysville,25,21030,123456,2,http://www.elitedentallab.us
Mann Michael L DDS,Michael Mann,,support@biolablogistics.com,123456,Dentistry,410 760 5120,7425 Baltimore Annapolis Boulevard # 100,Glen Burnie,25,21061,123456,2,http://www.glenburniedentalcare.com/
Neibauer Dental Care,Victoria Yu,,info@heartland.com,123456,Dentistry,301 262 0279,6141 High Bridge Road,Bowie,25,20720,123456,2,http://www.heartland.com/
HQ Dental Laboratory,Allan S Weinstein,,support@biolablogistics.com,123456,Dentistry,410 775 8259,6936 Copperbend Ln,Baltimore,25,21209,123456,2,http://www.hqdentallab.com/
Kelly Robert J DDS,Lev Tomashevsky,,ATatarian@KellyDDS.com,123456,Dentistry,301 948 0058,832 Quince Orchard Boulevard # T1,Gaithersburg,25,20878,123456,2,http://www.kellydds.com/
K Street Dental & Orthodontic,Akram Chouhayib ,,support@biolablogistics.com,123456,Dentistry,301 977 9787,308 Main St,Gaithersburg,25,20878,123456,2,http://www.kstreetdental.com/
Minahan Orthodontics,Lara Minahan,,minahanortho@yahoo.com,123456,Dentistry,301 260 2030,"3423 Olney-Laytonville Rd, Suite 3A",Olney,25,20832,123456,2,http://www.minahanorthodontics.com/
Smile Makers Dental Care,Rahim Hariri,,support@biolablogistics.com,123456,Dentistry,410 420 3600,312 Baltimore Pike,Bel Air,25,21014,123456,2,http://www.mysmilemakers.com/
N I of Dental Research,Pamela Gardner,,nih.ocpl@service.govdelivery.com,123456,Dentistry,301 496 5483,9000 Rockville Pike,Bethesda,25,20892,123456,2,http://www.nih.gov/
N T Dental Corp,,,dentallab@ntdentalcorp.com,123456,Dentistry,301 907 6817,4907 Cordell Ave Ste 200,Bethesda,25,20814,123456,2,http://www.ntdentalcorp.com/
Onnik Dental Lab Inc,Ararat Janjikian ,,odlinc@gmail.com,123456,Dentistry,301 230 9060,5507 Randolph Road,Rockville,25,20852,123456,2,http://www.odlinc.org/
ODL Dental Lab ,Ararat Janjikian,,araratj@gmail.com,123456,Dentistry,301 230 9060,5606 Randolph Rd,Rockville,25,20852,123456,2,http://www.onnikdentallab.com/
Paolantonio Dental Lab,Paul Paolantonio ,,paul@premiere1dental.com,123456,Dentistry,410 488 2727,5108 Belair Road,Baltimore,25,21206,123456,2,http://www.premiere1dental.com/
Smile Dental Studio LLC,Lili Ghazai,,drlili@smile-dental-studio.com,123456,Dentistry,240 644 2773 ; 301 825 9245,15825 Shady Grove Road # 120,Rockville,25,20850,123456,2,http://www.smile-dental-studio.com/
Caroline Larosiliere,Caroline Larosiliere ,,support@biolablogistics.com,123456,Dentistry,301 805 5437,14300 Gallant Fox Lane,Bowie,25,20715,123456,2,http://www.smilespediatricdentalcare.com/
Ahmad Soolari,Ahmad Soolari ,,support@drsoolari.com,123456,Dentistry,301 798 5558,13321 New Hampshire Avenue ,Silver Spring,25,20904,123456,2,http://www.soolaridentistry.com/
Thompson Suburban Dental Lab,William Grill,,gigi@thompsonsuburban.com,123456,Dentistry,410 453 9600,1922 Greenspring Drive # 9,Timonium,25,21093,123456,2,http://www.thompsonsuburban.com/
V-Tek,Edward Vaughan,,support@biolablogistics.com,123456,Dentistry,301 670 6394,15743 Crabbs Branch Way,Derwood,25,20855,123456,2,http://www.vaughanvtek.com/
Aesthetic Dental Laboratory,,,support@biolablogistics.com,123456,Dentistry, 410 543 8264,207 E Church St Hebron,Salisbury,25,21830,123456,2,https://www.facebook.com/pages/Aesthetic-Dental-Laboratory/712942168834547?fref=ts
Allegiance Dental Laborat,,,support@biolablogistics.com,123456,Dentistry,301 588 2218,1015 Spring St # 20,Silver Spring,25,20910,123456,2,https://www.facebook.com/pages/Allegiance-Dental-Laboratory/158533087513019?fref=ts
A P Dental Lab,P Mauri,,support@biolablogistics.com,123456,Dentistry,410 526 0406,5 Chartley Park Road,Reisterstown,25,21136,123456,2,https://www.facebook.com/pages/A-P-Dental-Lab/110037579060509?fref=ts
Hamilton & Staggs Dental,Fred Hamilton ,,support@biolablogistics.com,123456,Dentistry,301 786 4368,21403 Queens Point Road Sw,Westernport,25,21562,123456,2,https://www.facebook.com/staggsdental/info/?tab=page_info
"Precision Dental Laboratory, Inc",Rick Baier,,PDL91@aol.com,123456,Dentistry,443 716 5738,"108 Old Solomons Island Rd, Ste L 3",Annapolis,25,21401,123456,2,precision-dental.com
Amazing Dental Laboratory,Arlene Posadas,,amazingdental@yahoo.com,123456,Dentistry,"240 593 4935, 800 577 9579",403 N. Stonestreet Avenue,Rockville,25,20850,123456,2,www.amazingdentallab.net
Darmon Dental Studios,Maurice Darmon,,mrld@aol.com,123456,Dentistry,301 649 3276,1932 Westchester Drive,Silver Spring,25,20902,123456,2,www.darmondentalstudios.com
Davident Inc,David Klich,,contact@dividend.com,123456,Dentistry,301 493 5237,10401 Old Georgetown Road # 100,Bethesda,25,20814,123456,2,www.Davident.com
Dental Discounts,Mr. Hanson,,thanson36@ymail.com,123456,Dentistry,877 648 5433,P.O. Box 463,White Plains,25,20695,123456,2,www.dental-discounts.com
Friendship Dental Laboratories,Peter Eleftheriou,,petere@friendshilabs.com,123456,Dentistry,410 780 7700,8510 Philadelphia Road,Rosedale,25,21237,123456,2,www.friendshipdentallab.com
Orthodyne Labortories Inc,Joe Blankenship,, orthodynelab@att.net,123456,Dentistry,301 279 0040 ,771 E Gude Dr, Rockville,25,20850,123456,2,www.orthodynelab.com
Artistic Dental Design,Kathy Fletcher,,artisticdentaldesign@comcast.net,123456,Dentistry,410 586 0480,5018 Harvard St,Saint Leonard,25,20685,123456,2,www.topdentallab.com
Artistic Dental Design,Kathy Fletcher,,artisticdentaldesign@comcast.net,123456,Dentistry,410 586 0480,5018 Harvard St,Saint Leonard,25,20685,123456,2,www.topdentallab.com
Dmi Dental Laboratories LLC,"Mirahmad Kamali,",,venusdentallab@gmail.com,123456,Dentistry,301 921 0644,431 North Frederick Avenue # 201,Gaithersburg,25,20877,123456,2,www.venusdentallab.com
World Class Dental Laboratories,Marvin Stockett,,stockett@worldclassdentallabs.com,123456,Dentistry,410 305 8198,1416 Annapolis Road,Odenton,25,21113,123456,2,www.worldclassdentallabs.com
Protech Dental Lab Inc,,, info@pro-techdental.com,123456,Dentistry,410 628 1344 ,13816 Jarrettsville Pike,Phoenix,25,21131,123456,2,biolablogistics.com
Advanced Endodontics,Amir Sarkarzadeh ,,advancedendo@verizon.net,123456,Dentistry, 301 916 9683,13215 Executive Park Terrace,Germantown,25,20874,123456,2,biolablogistics.com
Histo-path of America,Kai Thomas,,akosot@gmail.com,123456,Dentistry,301 246 0280,,Olney,25,,123456,2,biolablogistics.com
Onnik Dental Lab,Ara,,araratj@gmail.com,123456,Dentistry,"301-230-9060, 301 442 0690",5606 Randolph Road,Rockville,25,20852,123456,2,biolablogistics.com
Acryl Dent Dental Laboratory Inc,Rafael F Duran Jr ,,custom.orders@dess-abutments.com,123456,Dentistry,301 585 0074,601 Wayne Avenue,Silver Spring,25,20910,123456,2,biolablogistics.com
DSS Dental Lab,,,dssdentallab1@gmail.com,123456,Dentistry,301 509 7246 ; 301 569 0235,8945 N Westlane Dr Suite 301,Gaithersburg,25,20877,123456,2,biolablogistics.com
Tower Dental Laboratory,John,,john@towerdentallab.com,123456,Dentistry,"301 721 0230, 301 721 0232",15720 Crabbs Branch Way #2a,Rockville,25,20855,123456,2,biolablogistics.com
D & S Dental Labs,David Johnson,,oscare0122@yahoo.com,123456,Dentistry,410 8770051,2813 A. Bel Air Road,Fallston,25,21047,123456,2,biolablogistics.com
Venus Dental Laboratory,Charles S Veirs,,venusdentallab@gmail.com,123456,Dentistry,301 948 4510,431 N Frederick Ave #201,Gaithersburg,25,20877,123456,2,biolablogistics.com
Latos Dental Laboratories,Robert Latos,,support@biolablogistics.com,123456,Dentistry,301 924 1700,3401 Olandwood Court # 203,Olney,25,20832,123456,2,biolablogistics.com
F Hocker & Associates Dental Laboratory,Frank Hocker,,support@biolablogistics.com,123456,Dentistry,410 578 0659,3308 Ayrdale Avenue,Baltimore,25,21216,123456,2,biolablogistics.com
A-1 Dental Laboratory Inc,Sun Chung,,support@biolablogistics.com,123456,Dentistry,301 587 8181,912 Silver Spring Ave,Silver Spring,25,20910,123456,2,biolablogistics.com
A&A Dental Lab,Ontim Onone ,,support@biolablogistics.com,123456,Dentistry,410 285 5184,2480 Keyway,Baltimore,25,21222,123456,2,biolablogistics.com
A A Dental Lab,,,support@biolablogistics.com,123456,Dentistry,443 507 5978,2251 Penn View Drive,Manchester,25,21102,123456,2,biolablogistics.com
Absolute Dental Lab,Seung Hoonlee ,,support@biolablogistics.com,123456,Dentistry,301 977 8434,202 Summit Hall Road,Gaithersburg,25,20877,123456,2,biolablogistics.com
Absolute Dental Lab LLC,,,support@biolablogistics.com,123456,Dentistry,301 829 6634,14336 Shirley Bohn Road,Mount Airy,25,21771,123456,2,biolablogistics.com
Accufit Dental Lab LLC,Himeron Hermenegildo ,,support@biolablogistics.com,123456,Dentistry,301 208 9233,18609 Grosbeak Terrace,Gaithersburg,25,20879,123456,2,biolablogistics.com
Ace Dental Laboratories,Kwon Byung,,support@biolablogistics.com,123456,Dentistry,240 314 0440,12011 Devilwood Drive,Potomac,25,20854,123456,2,biolablogistics.com
Artistic Dental Labs,Hiru D Khianey,,support@biolablogistics.com,123456,Dentistry,301 540 4888,19500 Amaranth Drive,Germantown,25,20874,123456,2,biolablogistics.com
Accufit Dental Laboratory LLC,Dan Nguyen ,,support@biolablogistics.com,123456,Dentistry,301 208 0392,8527 Ziggy Lane,Gaithersburg,25,20877,123456,2,biolablogistics.com
Admin Dental Laboratory,Zahra Harandizadeh,,support@biolablogistics.com,123456,Dentistry,301 464 8997,3507 Burleigh Drive,Mitchellville,25,20721,123456,2,biolablogistics.com
Advanced Dental Prosthetics,Claudiu Austin,,support@biolablogistics.com,123456,Dentistry,301 868 4500,7700 Old Branch Avenue,Clinton,25,20735,123456,2,biolablogistics.com
Advance Dental Lab,A Mcelwee ,,support@biolablogistics.com,123456,Dentistry,410 879 7396,2230 Cantley Drive,Forest Hill,25,21050,123456,2,biolablogistics.com
Ahn Dental Laboratory,Deuk Chung,,support@biolablogistics.com,123456,Dentistry,301 942 5088,11228 Georgia Avenue # 1 , Silver Spring,25,20902,123456,2,biolablogistics.com
Albario Dental Lab Inc, Thy Nguyen,,support@biolablogistics.com,123456,Dentistry,301 330 7556,18220 Contour Road,Montgomery Village,25,20877,123456,2,biolablogistics.com
Allegiance Dental Laboratory,Wallace Johnson,,support@biolablogistics.com,123456,Dentistry,301 588 2218,510 Hexton Hill Road,Silver Spring,25,20904,123456,2,biolablogistics.com
Allentown Dental Associates,Johnathan Bagwell ,,support@biolablogistics.com,123456,Dentistry,301 423 0100,6613 Allentown Road,Temple Hills,25,20748,123456,2,biolablogistics.com
Alpha Syromili Crown & Bridge Dental Labaratory,Robert C Mann ,,support@biolablogistics.com,123456,Dentistry,301 733 4762,7 Lehigh Avenue,Hagerstown,25,21742,123456,2,biolablogistics.com
A & M Dental Lab,Alla Elgort,,support@biolablogistics.com,123456,Dentistry,410 455 9530,12612 Dover Road,Reisterstown,25,21136,123456,2,biolablogistics.com
Amkor Dental Laboratories Inc,Yong Oh ,,support@biolablogistics.com,123456,Dentistry,410  531 3347,5301 Aerie Court,Clarksville,25,21029,123456,2,biolablogistics.com
Annapolis Dental Laboratory,Willie Carlisle,,support@biolablogistics.com,123456,Dentistry,410 267 9000,201 West St,Annapolis,25,21401,123456,2,biolablogistics.com
Apex Dental Lab Inc,Brad Smith,,support@biolablogistics.com,123456,Dentistry,410 860 2615,301 Snow Hill Road,Salisbury,25,21804,123456,2,biolablogistics.com
Apollonia Dental Lab,Janice Jones ,,support@biolablogistics.com,123456,Dentistry,410 448 0021,2117 North Forest Park Avenue,Baltimore,25,21207,123456,2,biolablogistics.com
Appalachian Mountain Orthodontics Inc,Jennifer Mattson ,,support@biolablogistics.com,123456,Dentistry,410 386 0270,526 North Springdale Road,Westminster,25,21158,123456,2,biolablogistics.com
A Quality Dental,Fred Campbell ,,support@biolablogistics.com,123456,Dentistry,301 608 0150,8115 Fenton St # 306,Silver Spring,25,20910,123456,2,biolablogistics.com
Araujo Dental Lab,Gerson Araujo,,support@biolablogistics.com,123456,Dentistry,301 779 8402,3601 Hamilton St # 1,Hyattsville,25,20782,123456,2,biolablogistics.com
Art Dental Studio,Jung Pak,,support@biolablogistics.com,123456,Dentistry,301 871 5640,14200 Chadwick Lane,Rockville,25,20853,123456,2,biolablogistics.com
Artec Dental Lab Inc,Carman Acosta ,,support@biolablogistics.com,123456,Dentistry,410 526 1234,308 Townleigh Road # B,Reisterstown,25,21136,123456,2,biolablogistics.com
Arundel Dental Lab Inc,,,support@biolablogistics.com,123456,Dentistry,410 757 0842,590 Melissa Court,Arnold,25,21012,123456,2,biolablogistics.com
Bay Dental Ceramics,Rolla Burk,,support@biolablogistics.com,123456,Dentistry,301 863 7311,21693 Great Mills Road,Lexington Park,25,20653,123456,2,biolablogistics.com
Bay Dental Group,Pat Copsey ,,support@biolablogistics.com,123456,Dentistry,410 414 8333,690 Prince Frederick Boulevard,Prince Frederick,25,20678,123456,2,biolablogistics.com
Bayridge Orthodontic Lab,John A Bifareti ,,support@biolablogistics.com,123456,Dentistry,301 740 4536,18457 Gardenia Way,Gaithersburg,25,20879,123456,2,biolablogistics.com
Bel-Mar Dental Laboratories,Marjorie Andrews ,,support@biolablogistics.com,123456,Dentistry,410 838 3717,221 Eastern Avenue,Bel Air,25,21014,123456,2,biolablogistics.com
Be-Ra Dental Laboratory,Soan P Tio ,,support@biolablogistics.com,123456,Dentistry,301 990 1511,26 North Summit Avenue # 200,Gaithersburg,25,20877,123456,2,biolablogistics.com
Best Dental Lab,Danny Kim ,,support@biolablogistics.com,123456,Dentistry,301 926 7615,12311 Chagall Drive,North Potomac,25,20878,123456,2,biolablogistics.com
Bethesda Dental Laboratory Inc,Richard I Wides,,support@biolablogistics.com,123456,Dentistry,301 253 2466,24101 Pecan Grove Lane,Gaithersburg,25,20882,123456,2,biolablogistics.com
Bethesdsa Dental Arts And Scie,Alexander Leenow ,,support@biolablogistics.com,123456,Dentistry,301 984 5884,11205 Ashley Drive,Rockville,25,20852,123456,2,biolablogistics.com
Bi Dental Lab,Deborah Baker,,support@biolablogistics.com,123456,Dentistry,301 253 5376,24306 Preakness Drive,Damascus,25,20872,123456,2,biolablogistics.com
B J Dental Laboratory,,,support@biolablogistics.com,123456,Dentistry,301 735 1852,4727 Quadrant St,Capitol Heights,25,20743,123456,2,biolablogistics.com
B&L Orthodontic Lab LLC,Brandt Miller ,,support@biolablogistics.com,123456,Dentistry,301 926 8989,14401 Cervantes Avenue,Germantown,25,20874,123456,2,biolablogistics.com
Bonay Dental Lab,,,support@biolablogistics.com,123456,Dentistry,301 372 0099,10705 Meynell Court,Cheltenham,25,20623,123456,2,biolablogistics.com
Bonilla Dental Lab,Juan Bonilla,,support@biolablogistics.com,123456,Dentistry,301 277 2514,3601 Hamilton St # L1,Hyattsville,25,20782,123456,2,biolablogistics.com
Brandham Clark,Clark Brandham,,support@biolablogistics.com,123456,Dentistry,410 437 6014,8100 Fort Smallwood Road,Baltimore,25,21226,123456,2,biolablogistics.com
Brandywine Ortho Lab,Ada Fazenbaker,,support@biolablogistics.com,123456,Dentistry,301 579 6003,16005 Meandering Drive,Brandywine,25,20613,123456,2,biolablogistics.com
Brisk Dental Lab Inc,Nikolay Brisk ,,support@biolablogistics.com,123456,Dentistry,443 759 9952,3601 Clarks Lane Apartment 214,Baltimore,25,21215,123456,2,biolablogistics.com
Bruce Dental Lab,Sang Sup Choi ,,support@biolablogistics.com,123456,Dentistry,301 933 7728,10551 Metropolitan Avenue,Kensington,25,20895,123456,2,biolablogistics.com
Cabiness Dental Studio,William Cabiness,,support@biolablogistics.com,123456,Dentistry,301 967 4150,5444 Marlboro Pike,Forestville,25,20747,123456,2,biolablogistics.com
C&A Ceramics,,,support@biolablogistics.com,123456,Dentistry,410 628 0259,14 Scott Adam Road,Cockeysville,25,21030,123456,2,biolablogistics.com
Carbaugh Crown And Bridge Inc,Kenneth J Carbaugh ,,support@biolablogistics.com,123456,Dentistry,301 898 3284,9945 Kelly Road,Walkersville,25,21793,123456,2,biolablogistics.com
Cardson Orthodontic Laboratory Inc,Jaime G Cardano ,,support@biolablogistics.com,123456,Dentistry,240 687 4752,7912 Orchard Park Way,Bowie,25,20715,123456,2,biolablogistics.com
Cardson's Orthodontic,,,support@biolablogistics.com,123456,Dentistry,301 352 5126,10111 Martin Luther King Jr Highway # 105,Bowie,25,20720,123456,2,biolablogistics.com
 Carrenway Orthodontic Lab Inc,Cary Lawson,,support@biolablogistics.com,123456,Dentistry,410 760 8707,241 Glengary Garth,Glen Burnie,25,21061,123456,2,biolablogistics.com
Carroll's Dental Lab,Henry Carroll ,,support@biolablogistics.com,123456,Dentistry,301 249 1827,2909 Nemeth Lane,Bowie,25,20716,123456,2,biolablogistics.com
Center For Oral Prosthetics Arts,Roy Levine ,,support@biolablogistics.com,123456,Dentistry, 301 729 0300,12812 Winchester Road Sw,Cumberland,25,21502,123456,2,biolablogistics.com
Ceramic Dental,Dan Martan,,support@biolablogistics.com,123456,Dentistry,530 534 0253,4246 Bar Harbor Place,Olney,25,20832,123456,2,biolablogistics.com
Chevy Chase Dental Lab,Dale Warren,,support@biolablogistics.com,123456,Dentistry,301 657 2787,4604 North Park Avenue,Chevy Chase,25,20815,123456,2,biolablogistics.com
Chung Dental Lab,Kung Chung,,support@biolablogistics.com,123456,Dentistry,301 921 0185,28 South Frederick Avenue # A,Gaithersburg,25,20877,123456,2,biolablogistics.com
Clark Darrell A MD,Darrell Clark,,support@biolablogistics.com,123456,Dentistry,301 866 9850,45111 First Colony Way,California,25,20619,123456,2,biolablogistics.com
Classic Crown & Bridge,Tom Cicala ,,support@biolablogistics.com,123456,Dentistry,301 725 4600,8284 Hammond Branch Way,Laurel,25,20723,123456,2,biolablogistics.com
Classic Dental Concepts,Michael Flannery,,support@biolablogistics.com,123456,Dentistry,301 898 5661,Po Box 336,Walkersville,25,21793,123456,2,biolablogistics.com
C&L Dental Lab,Jae Choi ,,support@biolablogistics.com,123456,Dentistry,301 854 1300,13450 Pond Field Court,Highland,25,20777,123456,2,biolablogistics.com
Colonial Dental Lab Inc,Ken Etzler ,,support@biolablogistics.com,123456,Dentistry,410 647 8835,1203 West St # East,Annapolis,25,21401,123456,2,biolablogistics.com
Colonial Dental Lab Inc,Charles Etzler ,,support@biolablogistics.com,123456,Dentistry,410 349 4866,1993 Moreland Parkway # 101,Annapolis,25,21401,123456,2,biolablogistics.com
Columbia C & B Dental Laboratory Inc,David Lee ,,support@biolablogistics.com,123456,Dentistry,410 730 3591,5485 Harpers Farm Road # 201,Columbia,25,21044,123456,2,biolablogistics.com
Confidental Studio Inc,Rafael Choi ,,support@biolablogistics.com,123456,Dentistry,240 477 5683,18211 Flower Hill Way A,Gaithersburg,25,20879,123456,2,biolablogistics.com
Contee Dental Laboratory Inc,H Contee ,,support@biolablogistics.com,123456,Dentistry,410 653 8868,10 Sudbrook Lane # 2,Pikesville,25,21208,123456,2,biolablogistics.com
Cook's Dental Laboratory,Kimberly Y Cook ,,support@biolablogistics.com,123456,Dentistry,301 248 9093,1301 Hunters Mill Avenue,Fort Washington,25,20744,123456,2,biolablogistics.com
Cooper Dental Labs Inc,Robert Cook Sr ,,support@biolablogistics.com,123456,Dentistry,410 247 6612,4646 Wilkens Avenue Floor 2,Baltimore,25,21229,123456,2,biolablogistics.com
County Dental Laboratory Inc,Mike Solomon ,,support@biolablogistics.com,123456,Dentistry,410 638 9988,1209 Bonaire Road,Forest Hill,25,21050,123456,2,biolablogistics.com
Creative Crown & Bridge Dental,David Twilley ,,support@biolablogistics.com,123456,Dentistry,410 546 0670,31768 Dagsboro Road,Delmar,25,21875,123456,2,biolablogistics.com
Creative Dental Studio,Anita Cummings ,,support@biolablogistics.com,123456,Dentistry,301 528 7676,431 North Frederick Avenue,Gaithersburg,25,20877,123456,2,biolablogistics.com
Crown Doctor Dental Lab,Wayne Chesner ,,support@biolablogistics.com,123456,Dentistry,443 986 7467,6239 Berkeley Avenue,Baltimore,25,21209,123456,2,biolablogistics.com
Crown Of Glory,Charlene Avery,,support@biolablogistics.com,123456,Dentistry,301 218 5040,13111 3rd St,Bowie,25,20720,123456,2,biolablogistics.com
C&S Dental Lab Inc,Amy Lazaro ,,support@biolablogistics.com,123456,Dentistry,410 882 5325,8118 Harford Road,Baltimore,25,21234,123456,2,biolablogistics.com
D & A Dental Studio,Anita Cummings,,support@biolablogistics.com,123456,Dentistry,301 590 8640,431 North Frederick Avenue,Gaithersburg,25,20877,123456,2,biolablogistics.com
Daniel Dorsey Dental Lab,Daniel Dorsey ,,support@biolablogistics.com,123456,Dentistry,410 521 4120,3306 Greenmead Road,Windsor Mill,25,21244,123456,2,biolablogistics.com
Dental Arcs Inc,Richard I Wides ,,support@biolablogistics.com,123456,Dentistry,301 948 2437,202 Kerry Parkway # 6,Gaithersburg,25,20877,123456,2,biolablogistics.com
Dental Ceramics Orthodontics,Dan Martin,,support@biolablogistics.com,123456,Dentistry,240 450 4009,10409 Georgia Avenue,Silver Spring,25,20902,123456,2,biolablogistics.com
Dental Crafters,Bill George,,support@biolablogistics.com,123456,Dentistry,410 956 8501,831 Kings Retreat Drive,Davidsonville,25,21035,123456,2,biolablogistics.com
Dental Designs Ltd,Ron Jacques ,,support@biolablogistics.com,123456,Dentistry,410 893 2091,917 Bergen Court,Bel Air,25,21014,123456,2,biolablogistics.com
Dental Lab D R,Julia D Revoredo,,support@biolablogistics.com,123456,Dentistry,410 861 9236 ,2011 Snapdragon Drive,Finksburg,25,21048,123456,2,biolablogistics.com
Dental Laboratory,Byong Lee,,support@biolablogistics.com,123456,Dentistry,410 661 2002,8208 Harford Road,Parkville,25,21234,123456,2,biolablogistics.com
Dental Office Thomas & Associates Inc,Lonra Sterling,,support@biolablogistics.com,123456,Dentistry,410 542 6900,5418 Park Heights Avenue # 1,Baltimore,25,21215,123456,2,biolablogistics.com
Dental Studio,Roberto Marroquin ,,support@biolablogistics.com,123456,Dentistry,301 589 3457,911 Silver Spring Avenue # 208,Silver Spring,25,20910,123456,2,biolablogistics.com
Denture Design Studio,Tin Brooks ,,support@biolablogistics.com,123456,Dentistry,301 423 2211,4700 Stamp Road # D2,Temple Hills,25,20748,123456,2,biolablogistics.com
Dns Dental Laboratories,Terry Yang,,support@biolablogistics.com,123456,Dentistry,301 548 0444,847 Quince Orchard Boulevard # A,Gaithersburg,25,20878,123456,2,biolablogistics.com
D & R Dental,Dmitry Podzin,,support@biolablogistics.com,123456,Dentistry,443 394 6600,11505 Reisterstown Road,Owings Mills,25,21117,123456,2,biolablogistics.com
Dynamic Dental Lab,Jerry Flannery,,support@biolablogistics.com,123456,Dentistry,240 422 9231,10326 Old Annapolis Road,Walkersville,25,21793,123456,2,biolablogistics.com
Eastern Prosthetics Specs,John Kelly,,support@biolablogistics.com,123456,Dentistry,410 788 2332,1603 Edmondson Avenue,Catonsville,25,21228,123456,2,biolablogistics.com
Easton Dental Lab,Glenn Crowder,,support@biolablogistics.com,123456,Dentistry,410 820 6054,28437 Cedar Point Road,Easton,25,21601,123456,2,biolablogistics.com
E & E Dental Lab LLC,Michael Linnan,,support@biolablogistics.com,123456,Dentistry,410 825 6620,110 West Road # 200,Towson,25,21204,123456,2,biolablogistics.com
Elite Dental Studio,Timothy Hanson ,,support@biolablogistics.com,123456,Dentistry,301 982 3447,6215 Greenbelt Road # 104,Berwyn Heights,25,20740,123456,2,biolablogistics.com
Epic Dental Laboratory,Edward Casper ,,support@biolablogistics.com,123456,Dentistry,410 990 1030,1610 Mcguckian St,Annapolis,25,21401,123456,2,biolablogistics.com
Excel Dental Lab,Zengyuan Yang ,,support@biolablogistics.com,123456,Dentistry,301 760 8482,655 Gatestone Square St,Gaithersburg,25,20878,123456,2,biolablogistics.com
Excel Dental Laboratories,Theodore Pickett ,,support@biolablogistics.com,123456,Dentistry,301 868 6644,6003 Spell Road,Clinton,25,20735,123456,2,biolablogistics.com
Excel Dental Laboratory Inc,Dale Yoo,,support@biolablogistics.com,123456,Dentistry,301 498 8200,250 Brock Bridge Road,Laurel,25,20724,123456,2,biolablogistics.com
Fb Dental Lab,Alla Dlyukher ,,support@biolablogistics.com,123456,Dentistry,410 602 0059,4005 Seven Mile Lane # 4,Pikesville,25,21208,123456,2,biolablogistics.com
First Choice Dental Studio LLC,Marvin Stockett ,,support@biolablogistics.com,123456,Dentistry,410 674 8200 ,1416 Annapolis Road,Odenton,25,21113,123456,2,biolablogistics.com
Fisher Dental Laboratories,Catherine A Fisher,,support@biolablogistics.com,123456,Dentistry,410 760 7656,717 Cotter Road,Glen Burnie,25,21060,123456,2,biolablogistics.com
Forrest Dental Lab,Francis Forrest Sr ,,support@biolablogistics.com,123456,Dentistry,301 475 5271,23835 Speith Road,Leonardtown,25,20650,123456,2,biolablogistics.com
Frederick Dentures & Orthdncs,Richard Kobbe,,support@biolablogistics.com,123456,Dentistry,301 694 6669,801 Toll House Avenue # H1,Frederick,25,21701,123456,2,biolablogistics.com
Friendship Dental Laboratories,Nick Diacoloukas ,,support@biolablogistics.com,123456,Dentistry,410 248 2451,9806 Kraft Hill Road,Perry Hall,25,21128,123456,2,biolablogistics.com
Garrett Dental Lab,,,support@biolablogistics.com,123456,Dentistry, 301 387 2101 ,Deep Creek Drive,McHenry,25,21541,123456,2,biolablogistics.com
Gene Leiner,Gene Leiner ,,support@biolablogistics.com,123456,Dentistry,301 871 4516 ,14502 Woodcrest Drive,Rockville,25,20853,123456,2,biolablogistics.com
Ghim's Dental Arts,Soon Ja Ghim,,support@biolablogistics.com,123456,Dentistry,301 585 1188,8807 Flower Avenue,Silver Spring,25,20901,123456,2,biolablogistics.com
Gold Dental Laboratory Inc,Tom Brooks,,support@biolablogistics.com,123456,Dentistry,410 668 2393,8118 Harford Road # 1,Parkville,25,21234,123456,2,biolablogistics.com
Hamilton Dental Lab,William Hamilton ,,support@biolablogistics.com,123456,Dentistry,410 756 4228,6388 Keysville Road,Keymar,25,21757,123456,2,biolablogistics.com
Hammond Dental Laboratory,Colton Hammond,,support@biolablogistics.com,123456,Dentistry,301 942 7144,2813 Jutland Road,Kensington,25,20895,123456,2,biolablogistics.com
Harmony Dental Lab,Jay Gaver,,support@biolablogistics.com,123456,Dentistry,301 831 7144,4540 Baltimore National Pike # 2,Mount Airy,25,21771,123456,2,biolablogistics.com
H & M Dental Studios,Herbert Mollinedo,,support@biolablogistics.com,123456,Dentistry,301 355 5155,1 Maryland Avenue # B,Gaithersburg,25,20877,123456,2,biolablogistics.com
House B's Dental Lab,Jai Ok ,,support@biolablogistics.com,123456,Dentistry,301 384 3129,16209 Carefree Lane,Silver Spring,25,20905,123456,2,biolablogistics.com
Ian's Dental Art LLC,Ian Bland ,,support@biolablogistics.com,123456,Dentistry,301 617 0176,9324 Canterbury Riding,Laurel,25,20723,123456,2,biolablogistics.com
Implant Associates Inc,Richard Geis ,,support@biolablogistics.com,123456,Dentistry,410 544 9700,201 Mckinsey Road,Severna Park,25,21146,123456,2,biolablogistics.com
Infinity Dental Lab,Yup Yun Jae ,,support@biolablogistics.com,123456,Dentistry,301 987 0463,8947 Shady Grove Court,Gaithersburg,25,20877,123456,2,biolablogistics.com
Innovative Prosthetic Dentistry Inc,Morty Ingbr ,,support@biolablogistics.com,123456,Dentistry,301 654 9134,7830 Old Georgetown Road # 200,Bethesda,25,20814,123456,2,biolablogistics.com
International Dental Lab,Chang Kissell ,,support@biolablogistics.com,123456,Dentistry,410 519 3112,734 Thornwood Drive,Odenton,25,21113,123456,2,biolablogistics.com
Island Dental Studio,Sarah Aufderheide ,,support@biolablogistics.com,123456,Dentistry,410 604 6915,202 Sint Clire Place # 200,Stevensville,25,21666,123456,2,biolablogistics.com
Jackson Dental Lab,Conrad Jackson ,,support@biolablogistics.com,123456,Dentistry,410 669 8612,1738 North Monroe St,Baltimore,25,21217,123456,2,biolablogistics.com
James Dental Lab,James Lee ,,support@biolablogistics.com,123456,Dentistry,301 7317863,9610 Huxley Drive,Lanham,25,20706,123456,2,biolablogistics.com
Jca Dental Laboratory Inc,Jose C Araujo ,,support@biolablogistics.com,123456,Dentistry,301 779 8402,3601 Hamilton St,Hyattsville,25,20782,123456,2,biolablogistics.com
J C Dental Lab Inc,Juares Cabanelas ,,support@biolablogistics.com,123456,Dentistry,301 869 5235,1 Tulip Drive,Gaithersburg,25,20877,123456,2,biolablogistics.com
Jck Dental Laboratory,Mi Kang,,support@biolablogistics.com,123456,Dentistry,410 760 9657,8212 Crab Apple Court,Glen Burnie,25,21061,123456,2,biolablogistics.com
J&J Dental Lab,Phillip Pak ,,support@biolablogistics.com,123456,Dentistry,410 356 2120,4 Park Center Court # 201,Owings Mills,25,21117,123456,2,biolablogistics.com
Joon Dental Lab,Joon Kim,,support@biolablogistics.com,123456,Dentistry,301 362 8820,11370 Old Hopkins Road,Clarksville,25,21029,123456,2,biolablogistics.com
Joseph A Udit Dental Lab,Joseph A Udit ,,support@biolablogistics.com,123456,Dentistry,301 588 2137,816 Easley St Apartment 1627,Silver Spring,25,20910,123456,2,biolablogistics.com
Joseph Benamor & Dental Lab,Joseph Benamor,,support@biolablogistics.com,123456,Dentistry,410 653 0413,8 Sudbrook Lane,Pikesville,25,21208,123456,2,biolablogistics.com
Joy Dental Laboratories,James Koo,,support@biolablogistics.com,123456,Dentistry,410 461 1177,3454 Ellicott Center Drive # 205,Ellicott City,25,21043,123456,2,biolablogistics.com
J R Crown Bridge Enterprises Inc,Javed Aslam ,,support@biolablogistics.com,123456,Dentistry,410 284 0922,2507 Old North Point Road,Baltimore,25,21222,123456,2,biolablogistics.com
J R Dental Lab,Kim Ho,,support@biolablogistics.com,123456,Dentistry,301 490 4019,9101 Cherry Lane # 113,Laurel,25,20708,123456,2,biolablogistics.com
Jr Dental Laboratory In,,,support@biolablogistics.com,123456,Dentistry,301 717 2131,11004 Harding Road,Laurel,25,20723,123456,2,biolablogistics.com
Jsd Dental Lab Inc,Jun Sang Yoo ,,support@biolablogistics.com,123456,Dentistry,410 529 6398,5 Mallow Court,Baltimore,25,21236,123456,2,biolablogistics.com
J T Crowns Inc,Grace M Williams,,support@biolablogistics.com,123456,Dentistry,301 949 6666,20 Brian Court,Gaithersburg,25,20877,123456,2,biolablogistics.com
Kershner Dental Laboratory,Ronald Kershner,,support@biolablogistics.com,123456,Dentistry,301 432 6761,2339 Chestnut Grove Road,Sharpsburg,25,21782,123456,2,biolablogistics.com
King Dental Lab Inc,George King ,,support@biolablogistics.com,123456,Dentistry,410 255 3544 ,342 Nature Walk Lane,Pasadena,25,21122,123456,2,biolablogistics.com
Krause Dental Lab,Amber Krause ,,support@biolablogistics.com,123456,Dentistry,410 257 6417,3435 Churchill Court,Owings,25,20736,123456,2,biolablogistics.com
Kreisler Dental Laboratory,Ron Bowen ,,support@biolablogistics.com,123456,Dentistry,410 526 5151,15 Chartley Park Road,Reisterstown,25,21136,123456,2,biolablogistics.com
Las Dental Inc,Dick Lee ,,support@biolablogistics.com,123456,Dentistry,301 421 9796 ,2918 Spencerville Road,Burtonsville,25,20866,123456,2,biolablogistics.com
Latos Dental Laboratories,Robert Latos,,support@biolablogistics.com,123456,Dentistry,301 924 1700,3401 Olandwood Court # 203,Olney,25,20832,123456,2,biolablogistics.com
Lee Lynn Dental Laboratory LLC,Vicki L White ,,support@biolablogistics.com,123456,Dentistry,410 581 8025,401 Hammershire Road,Owings Mills,25,21117,123456,2,biolablogistics.com
Lewis Dental Laboratory Inc,Steve Reynolds,,support@biolablogistics.com,123456,Dentistry,410 676 4040,2104 Trimble Road # B,Edgewood,25,21040,123456,2,biolablogistics.com
Lim Dental Lab,Kyunam Lim ,,support@biolablogistics.com,123456,Dentistry,301 384 3588,3216 Hollyhock Drive,Burtonsville,25,20866,123456,2,biolablogistics.com
Lpm Dental Lab,Larney Michael ,,support@biolablogistics.com,123456,Dentistry,301 322 5474,7924 Echols Avenue,Glenarden,25,20706,123456,2,biolablogistics.com
Major Dental Lab,Larry Majer ,,support@biolablogistics.com,123456,Dentistry,410 486 7705,6922 Copperbend Lane,Baltimore,25,21209,123456,2,biolablogistics.com
Mario Batacan Dental Lab,Mario Batacan,,support@biolablogistics.com,123456,Dentistry,301 248 3400,6600 Livingston Road,Oxon Hill,25,20745,123456,2,biolablogistics.com
Mariola Huziej Dental Lab,Doug Huber,,support@biolablogistics.com,123456,Dentistry,410 552 1935,4280 Home Dale Road,Sykesville,25,21784,123456,2,biolablogistics.com
Marroquim Dental Studio,Iola Marroquin ,,support@biolablogistics.com,123456,Dentistry,301 565 9316 ,7906 Georgia Avenue # 108,Silver Spring,25,20910,123456,2,biolablogistics.com
Marroquin Dental Studio,Miguel Marroquin ,,support@biolablogistics.com,123456,Dentistry,301 681 6922 ,10004 Portland Road,Silver Spring,25,20901,123456,2,biolablogistics.com
Martin Dental Lab,Fong Tren ,,support@biolablogistics.com,123456,Dentistry,301 434 0919,9422 Curran Road,Silver Spring,25,20901,123456,2,biolablogistics.com
Maryland Orthodontic Specialis,Maria E. Romero,,support@biolablogistics.com,123456,Dentistry,410 224 2822,122 Defense Highway # 200,Annapolis,25,21401,123456,2,biolablogistics.com
Maryland Southern Dental Laboratory Inc,Ron Beech ,,support@biolablogistics.com,123456,Dentistry,301 870 2626,Southern Md Bus Park 24,White Plains,25,20695,123456,2,biolablogistics.com
Maryland State Dental Assn,Brenda Burkett ,,support@biolablogistics.com,123456,Dentistry,410 749 6670,104 Milford St,Salisbury,25,21804,123456,2,biolablogistics.com
Maryland State Dental Assn,James Resh,,support@biolablogistics.com,123456,Dentistry,410 374 5900,1306 North Main St,Hampstead,25,21074,123456,2,biolablogistics.com
Maryland State Dental Assn,Allison Giannino ,,support@biolablogistics.com,123456,Dentistry,410 465 7539,10552 Hounslow Drive,Woodstock,25,21163,123456,2,biolablogistics.com
Maryland State Dental Assn,,,support@biolablogistics.com,123456,Dentistry,301 884 8133,27015 Erin Drive,Mechanicsville,25,20659,123456,2,biolablogistics.com
Mbrs Inc,George Rayford ,,support@biolablogistics.com,123456,Dentistry,410 467 3675,2451 North Calvert St,Baltimore,25,21218,123456,2,biolablogistics.com
Merizian Den,Nader Merizian,,support@biolablogistics.com,123456,Dentistry,301 879 8990 ,12814 Tamarack Road,Silver Spring,25,20904,123456,2,biolablogistics.com
Michael Michalec,Michael Michalec ,,support@biolablogistics.com,123456,Dentistry,240 477 4479,18140 Chalet Drive,Germantown,25,20874,123456,2,biolablogistics.com
Microdent Dental Lab,AL Lichaa,,support@biolablogistics.com,123456,Dentistry,301 519 0034,604 South Frederick Avenue # 305,Gaithersburg,25,20877,123456,2,biolablogistics.com
Microdent Dental Labratories I,Amin Lichaa ,,support@biolablogistics.com,123456,Dentistry,301 718 3455 ,7847 Old Georgetown Road,Bethesda,25,20814,123456,2,biolablogistics.com
Mike Smith Dental Lab,Michael Smith,,support@biolablogistics.com,123456,Dentistry,410 465 2006,9335 Baltimore National Pike,Ellicott City,25,21042,123456,2,biolablogistics.com
Miles Dental Technics,Michael Miles ,,support@biolablogistics.com,123456,Dentistry,301 925 2080 ,525 Eastern Avenue # 83,Fairmount Heights,25,20743,123456,2,biolablogistics.com
Montgomery Dental Lab,John Sommerville ,,support@biolablogistics.com,123456,Dentistry,301 963 2328 ,109 West Deer Park Road,Gaithersburg,25,20877,123456,2,biolablogistics.com
Mounmental Dental,Paul Kalish ,,support@biolablogistics.com,123456,Dentistry,410 653 1121,4317 Old Milford Mill Road,Pikesville,25,21208,123456,2,biolablogistics.com
M Z Dental Lab LLC,Michael Vinger ,,support@biolablogistics.com,123456,Dentistry,410 526 5335,112 East Chestnut Hill Lane,Reisterstown,25,21136,123456,2,biolablogistics.com
Nachum Dental Lab,Agnes Mendoza ,,support@biolablogistics.com,123456,Dentistry,301 260 2465,18504 Queen Elizabeth Drive,Olney,25,20832,123456,2,biolablogistics.com
Natezana Dental Lab,Wiler Antezana ,,support@biolablogistics.com,123456,Dentistry,301 565 0765,2203 Ellis St,Silver Spring,25,20910,123456,2,biolablogistics.com
Newberger Dental Lab,Sidney Newberger ,,support@biolablogistics.com,123456,Dentistry,410 764 1413,3310 Midfield Road,Pikesville,25,21208,123456,2,biolablogistics.com
New Edition Dental Laboratory,,,support@biolablogistics.com,123456,Dentistry,904 282 0924,12917 Neola Road,Silver Spring,25,20906,123456,2,biolablogistics.com
Nmc Dental Lab,Nelson Cornelio,,support@biolablogistics.com,123456,Dentistry,301 270 9501,6480 New Hampshire Avenue # 300,Takoma Park,25,20912,123456,2,biolablogistics.com
Nobilis Dental Art Studio Limited Liability Company,Amir Juzbasic ,,support@biolablogistics.com,123456,Dentistry,301 915 8005,8128 Old Georgetown Road,Bethesda,25,20814,123456,2,biolablogistics.com
NT Dental Corp,Harumi Tanabe,,support@biolablogistics.com,123456,Dentistry,301 907 6858,4907 Cordell Avenue # 200,Bethesda,25,20814,123456,2,biolablogistics.com
Olney Orthodontic Assoc,David Lavine ,,support@biolablogistics.com,123456,Dentistry,301 260 2030,18200 Georgia Avenue # North,Olney,25,20832,123456,2,biolablogistics.com
Oral Design & Art Dental Lab,Jong Lee,,support@biolablogistics.com,123456,Dentistry,410 334 6740,203 Newton St,Salisbury,25,21801,123456,2,biolablogistics.com
Ortho Arts Laboratory,Grant Taylor,,support@biolablogistics.com,123456,Dentistry,301 948 5243,15745 Crabbs Branch Way # B,Derwood,25,20855,123456,2,biolablogistics.com
Orthodontic Appliances,Mia Scholman ,,support@biolablogistics.com,123456,Dentistry,301 869 0899 ,588 Russell Avenue,Gaithersburg,25,20877,123456,2,biolablogistics.com
Pazouki Aliakbar,Aliakbar Pazouki ,,support@biolablogistics.com,123456,Dentistry,301 460 4043,2044 Middlebridge Drive,Silver Spring,25,20906,123456,2,biolablogistics.com
P-D Dental Laboratory,Randall Laronde,,support@biolablogistics.com,123456,Dentistry,410 277 0877,3025 North Rolling Road,Baltimore,25,21244,123456,2,biolablogistics.com
Pearl Brite Dental,Joongseo Kim,,support@biolablogistics.com,123456,Dentistry,410 750 6274,10176 Baltimore National Pike,Ellicott City,25,21042,123456,2,biolablogistics.com
Penn Dental Lab,Rafael Choi,,support@biolablogistics.com,123456,Dentistry,240 477 5683,18211 Flower Hill Way # A,Gaithersburg,25,20879,123456,2,biolablogistics.com
P G Dental Lab,George Thoupos,,support@biolablogistics.com,123456,Dentistry,410 254 8727,7203 Harford Road,Parkville,25,21234,123456,2,biolablogistics.com
Phoenix Dental Laboratory Inc,Sue Smith,,support@biolablogistics.com,123456,Dentistry,301 899 9431,4580 Beech Road,Temple Hills,25,20748,123456,2,biolablogistics.com
P K Choi Dental Laboratory,Chung Choi,,support@biolablogistics.com,123456,Dentistry,301 384 6700,13508 New Hampshire Avenue,Silver Spring,25,20904,123456,2,biolablogistics.com
Practical Dental Lab,Michael Willacy,,support@biolablogistics.com,123456,Dentistry,301 431 2663,P O Box 96,Hyattsville,25,20781,123456,2,biolablogistics.com
Pratt Dental Laboratory Inc,John Pratt,,support@biolablogistics.com,123456,Dentistry,301 330 8575,947 Russell Avenue # B,Gaithersburg,25,20879,123456,2,biolablogistics.com
Precision Ceramics Inc,Peter Trepper ,,support@biolablogistics.com,123456,Dentistry,301 620 7801,550 Highland St # 419,Frederick,25,21702,123456,2,biolablogistics.com
Precision Dental Laboratory,William Dees,,support@biolablogistics.com,123456,Dentistry,410 280 9098,15 Silopanna Road,Annapolis,25,21403,123456,2,biolablogistics.com
Precision Dental Studio,,,support@biolablogistics.com,123456,Dentistry,301 946 2433,2311 University Boulevard West,Wheaton,25,20902,123456,2,biolablogistics.com
Prestige Dental Service Laboratory,,,support@biolablogistics.com,123456,Dentistry,301 322 2001,1400 Mercantile Lane # 130,Upper Marlboro,25,20774,123456,2,biolablogistics.com
Prime Dental Lab,Dykhyung Lee,,support@biolablogistics.com,123456,Dentistry,410 740 4949,5162 Durham Road West,Columbia,25,21044,123456,2,biolablogistics.com
Professional Dental Crafts,Jay Varipatis,,support@biolablogistics.com,123456,Dentistry,410 661 0995,8606 Harford Road,Parkville,25,21234,123456,2,biolablogistics.com
Prosperity Dental Lab,Terry A Floretta,,support@biolablogistics.com,123456,Dentistry,301 324 2411,6049 Central Avenue,Capitol Heights,25,20743,123456,2,biolablogistics.com
Prosthetic Appliances Dental,Tyrone Staton ,,support@biolablogistics.com,123456,Dentistry,410 528 0067,1119 West Baltimore St,Baltimore,25,21223,123456,2,biolablogistics.com
Puredent Dental Laboratory,Peter Lee ,,support@biolablogistics.com,123456,Dentistry,301 587 9030,2429 Linden Lane,Silver Spring,25,20910,123456,2,biolablogistics.com
Purform Dental Lab,Aly Omar ,,support@biolablogistics.com,123456,Dentistry,714 473 0073,10430 Swift Stream Place,Columbia,25,21044,123456,2,biolablogistics.com
Quasar Dental Lab,Kasangra C Nilesh,,support@biolablogistics.com,123456,Dentistry,301 498 4444,414 Main St,Laurel,25,20707,123456,2,biolablogistics.com
Rainbow Dental Lab,Dan Kim ,,support@biolablogistics.com,123456,Dentistry,301 694 6545,109 Rose Garden Way,Frederick,25,21702,123456,2,biolablogistics.com
Rameau Jean-Mary,Jean-Mary Rameau ,,support@biolablogistics.com,123456,Dentistry,301 925 2241,1400 Mercantile Lane # 130,Upper Marlboro,25,20774,123456,2,biolablogistics.com
Reduce Dental Lab,Jimmy Moore ,,support@biolablogistics.com,123456,Dentistry, 410 244 1256 ,5209 York Road # B2,Baltimore,25,21212,123456,2,biolablogistics.com
Reliable Dental Lab,George Deep ,,support@biolablogistics.com,123456,Dentistry,301 236 0291,15417 Tindlay St,Silver Spring,25,20905,123456,2,biolablogistics.com
Restoration Dental Lab Inc,Dwayne Proctor ,,support@biolablogistics.com,123456,Dentistry,301 259 2295,11417 Wollaston Circle,Swan Point,25,20645,123456,2,biolablogistics.com
Restoration Lavatories Inc,Fabian Tucker ,,support@biolablogistics.com,123456,Dentistry,301 877 7550,7900 Old Branch Avenue # 210,Clinton,25,20735,123456,2,biolablogistics.com
Rochelle Woolridge-Jones,Rochelle Woolridge-Jones ,,support@biolablogistics.com,123456,Dentistry,,5806 Elkridge Heights Road,Elkridge,25,21075,123456,2,biolablogistics.com
Ron Twilley,Ron Twilley ,,support@biolablogistics.com,123456,Dentistry,410 749 2876,7686 Parsonsburg Road,Parsonsburg,25,21849,123456,2,biolablogistics.com
Roop Dental Lab,Jack Roop,,support@biolablogistics.com,123456,Dentistry,301 587 7910,809 Easley St,Silver Spring,25,20910,123456,2,biolablogistics.com
Rose Dental Studio,Duke Chung ,,support@biolablogistics.com,123456,Dentistry,301 933 1520,11228 Georgia Avenue,Silver Spring,25,20902,123456,2,biolablogistics.com
Rountree Dental Lab,Jonathan Rountree,,support@biolablogistics.com,123456,Dentistry,410 225 7932,1804 North Bentalou St,Baltimore,25,21216,123456,2,biolablogistics.com
Sam Durner,Sam Durner ,,support@biolablogistics.com,123456,Dentistry,410 479 3475 ,100 South 7th St,Denton,25,21629,123456,2,biolablogistics.com
Scott Orthodontic Laboratory,William Scott,,support@biolablogistics.com,123456,Dentistry,301 846 7791,13533 Clopper Road,Germantown,25,20874,123456,2,biolablogistics.com
Service Dental Lab,Doug Kerns,,support@biolablogistics.com,123456,Dentistry,410 566 4430,3528 Frederick Avenue,Baltimore,25,21229,123456,2,biolablogistics.com
Shamrock Dental Lab,Philip Leary,,support@biolablogistics.com,123456,Dentistry,410 857 1537,288 Montpelier Court,Westminster,25,21157,123456,2,biolablogistics.com
Silvestre Gonzalez Lab,Silvestre Gonzalez,,support@biolablogistics.com,123456,Dentistry,301 962 6996,12713 Holdridge Road,Silver Spring,25,20906,123456,2,biolablogistics.com
Sites Dental Lab,Patricia Sites,,support@biolablogistics.com,123456,Dentistry,301 842 1200,12848 Cohill Road,Clear Spring,25,21722,123456,2,biolablogistics.com
Smile Dental Laboratory,Chang Choi ,,support@biolablogistics.com,123456,Dentistry,301 990 9826,7207 Osprey Dr,Rockville,25,20855,123456,2,biolablogistics.com
Somerset Dental Lab Inc,Gabrielle Tahan ,,support@biolablogistics.com,123456,Dentistry,240 372 3145,12816 Goldstone Court,Silver Spring,25,20904,123456,2,biolablogistics.com
Southern Maryland Dental Lab,Ron Beach,,support@biolablogistics.com,123456,Dentistry,301 934 2626,6223 Seal Place,Waldorf,25,20603,123456,2,biolablogistics.com
Southern MD Dental Laboratory,Ron Beach,,support@biolablogistics.com,123456,Dentistry,301 870 2626,449 Southern Bus Park Drive,White Plains,25,20695,123456,2,biolablogistics.com
Southern State Dental Laboratory Inc,Nina Borissow,,support@biolablogistics.com,123456,Dentistry,301 855 4708,710 Dalrymple Road,Sunderland,25,20689,123456,2,biolablogistics.com
Specialty Dental Lab,Robert Nelson,,support@biolablogistics.com,123456,Dentistry,410 462 1400,2355 West North Avenue,Baltimore,25,21216,123456,2,biolablogistics.com
Sposato Dental Laboratory Inc,Anthony F Sposato ,,support@biolablogistics.com,123456,Dentistry, 410 398 6540 ,20 Charles Court,Elkton,25,21921,123456,2,biolablogistics.com
Sterling Dental Lab,Patricia Green,,support@biolablogistics.com,123456,Dentistry,410 968 2842,27000 Old State Road,Crisfield,25,21817,123456,2,biolablogistics.com
Stone Dental Labs,Frank Marchand ,,support@biolablogistics.com,123456,Dentistry,301 912 3395,2304 Chapel Hill Boulevard,Odenton,25,21113,123456,2,biolablogistics.com
Sun Dental Lab,Yong Park,,support@biolablogistics.com,123456,Dentistry,301 490 2331,14333 Laurel Bowie Road # 202,Laurel,25,20708,123456,2,biolablogistics.com
Takoma Dental Clinic,Nelson Cornelio,,support@biolablogistics.com,123456,Dentistry,301 270 9501,6480 New Hampshire Avenue # 302,Takoma Park,25,20912,123456,2,biolablogistics.com
Top Dental Studio Inc,Andy Yoon ,,support@biolablogistics.com,123456,Dentistry,301 570 7800 ,2911 Sndy Spring Road # C,Olney,25,20832,123456,2,biolablogistics.com
Top Quality Dental Lab Inc,Tim Tran ,,support@biolablogistics.com,123456,Dentistry,410 414 3006,2405 Kings Landing Road,Huntingtown,25,20639,123456,2,biolablogistics.com
Tower Dental Laboratory,Daniel Shin,,support@biolablogistics.com,123456,Dentistry,301 721 0230,15720 Crabbs Branch Way # 2a,Rockville,25,20855,123456,2,biolablogistics.com
Trident Dental Ceramics,,,support@biolablogistics.com,123456,Dentistry,301 636 4049,,Capitol Heights,25,20743,123456,2,biolablogistics.com
Triple Crown Dental Inc,Adam Ben-Zev ,,support@biolablogistics.com,123456,Dentistry,888 902 0011,2542 Quarry Lake Drive,Baltimore,25,21209,123456,2,biolablogistics.com
United Dental Laboratory Inc,Amanda Christie,,support@biolablogistics.com,123456,Dentistry,410 761 1973,1404 Crain Highway South # 102,Glen Burnie,25,21061,123456,2,biolablogistics.com
Vaughan Dental Laboratory Inc,Ed Vaughan,,support@biolablogistics.com,123456,Dentistry,301 670 6394,15743 Crabbs Branch Way,Derwood,25,20855,123456,2,biolablogistics.com
Walter Dental Laboratory,John Walter ,,support@biolablogistics.com,123456,Dentistry,410 208 6300,36 Capetown Road,Berlin,25,21811,123456,2,biolablogistics.com
Ward Patty,Patty Ward,,support@biolablogistics.com,123456,Dentistry,410 968 0425,27000 Old State Road,Crisfield,25,21817,123456,2,biolablogistics.com
Whitfield-Lock Diane DDS,Diane Whitfield-Lock,,support@biolablogistics.com,123456,Dentistry,301 420 1464,5105 Marlboro Pike,Capitol Heights,25,20743,123456,2,biolablogistics.com
Whittco Inc,Joan Carroll ,,support@biolablogistics.com,123456,Dentistry,301 884 8045,1552 West Lakeland Drive,Mechanicsville,25,20659,123456,2,biolablogistics.com
Wilkinson Dental Studio Inc,Lawrence T Wilkinson ,,support@biolablogistics.com,123456,Dentistry,808 294 2088,7000 Brink Road,Gaithersburg ,25,20882,123456,2,biolablogistics.com
Wise Dental Lab,Preston Wise,,support@biolablogistics.com,123456,Dentistry,410 277 9610,6411 Windsor Mill Road,Baltimore,25,21207,123456,2,biolablogistics.com
Wise Dental Laboratories,Preston D Wise,,support@biolablogistics.com,123456,Dentistry,443 200 3337,2104 Gwynn Oak Avenue,Gwynn Oak,25,21207,123456,2,biolablogistics.com
Word Dental Lab,Jae Seo,,support@biolablogistics.com,123456,Dentistry,301 345 2829,7500 Hanover Parkway # 106a,Greenbelt,25,20770,123456,2,biolablogistics.com
Yes Dental Lab,Young Chon,,support@biolablogistics.com,123456,Dentistry,301 420 0060,5218 Silver Hill Road,District Heights,25,20747,123456,2,biolablogistics.com
Young S Dental Lab,,,support@biolablogistics.com,123456,Dentistry,443 465 8558,20 Bannock Court,Randallstown,25,21133,123456,2,biolablogistics.com
Young's Dental Laboratory,Young Yoo ,,support@biolablogistics.com,123456,Dentistry,410 465 8833,3721 Garand Road,Ellicott City,25,21042,123456,2,biolablogistics.com
Zippert Dental Lab Inc,Randy Zippert,,support@biolablogistics.com,123456,Dentistry,410 255 4225,8100 Fort Smallwood Road,Baltimore,25,21226,123456,2,biolablogistics.com
Interstate Dental Lab,Wayne Chesner,,support@biolablogistics.com,123456,Dentistry,410 243 8525,2203 N Charles St,Baltimore,25,21218,123456,2,biolablogistics.com
Newberger Sidney,,,support@biolablogistics.com,123456,Dentistry,410 764 1413,4010 Glengyle Ave Ste 4,Baltimore,25,21215,123456,2,biolablogistics.com
Paul Cooper DBA The Teeth Man Dental Lab LLC,Charles Shelton,,support@biolablogistics.com,123456,Dentistry,410 367 2090,5418 Park Heights Ave,Baltimore,25,21215,123456,2,biolablogistics.com
Security Dental Lab,,,support@biolablogistics.com,123456,Dentistry,410 254 6909,3013 Evergreen Ave,Baltimore,25,21214,123456,2,biolablogistics.com
Triple Crown Dental Lab,,,support@biolablogistics.com,123456,Dentistry,443 759 5568,5200 Moravia Rd,Baltimore,25,21206,123456,2,biolablogistics.com
Annapolis Denture Service by Drs Lee Bonfiglio & Vesely,Eva Malinowski,,support@biolablogistics.com,123456,Dentistry,410 268 5503,1606 Forest Dr,Annapolis,25,21403,123456,2,biolablogistics.com
Rdl Dental Lab,,,support@biolablogistics.com,123456,Dentistry,443 458 5887,1912 Lincoln Dr,Annapolis,25,21401,123456,2,biolablogistics.com
Kdental,,,support@biolablogistics.com,123456,Dentistry,410 877 0051,16 N Hays St,Bel Air,25,21014,123456,2,biolablogistics.com
European Dental Ceramics,Zita Kalmar,,support@biolablogistics.com,123456,Dentistry,301 652 4937,8200 Wisconsin Ave Ste 110,Bethesda,25,20814,123456,2,biolablogistics.com
Catoctin Crown and Bridge LLC,Alexis Bailey,,support@biolablogistics.com,123456,Dentistry,301 631 8331,1309 Orchard Way, Frederick,25,21703,123456,2,biolablogistics.com
"Olde Towne Dental Laboratory, Llc",,,support@biolablogistics.com,123456,Dentistry,240 994 9419 ,26 N Summit Ave,Gaithersburg,25,20877,123456,2,biolablogistics.com
Pk Choi Dental Lab,Chung Choi,,support@biolablogistics.com,123456,Dentistry,301 384 6700 ,525 Southview Ave,Silver Spring,25,20905,123456,2,biolablogistics.com
Padilla Dental Lab,,,support@biolablogistics.com,123456,Dentistry,301 983 9659 ,11513 Deborah Dr,Potomac,25,20854,123456,2,biolablogistics.com
Assoc Dental Studio of Laurel,Stewart Rosenberg,,support@biolablogistics.com,123456,Dentistry,410 792 7066 ,9101 Cherry Ln Ste 202, Laurel,25,20708,123456,2,biolablogistics.com
The Dental Studio Inc, George Gelston,,support@biolablogistics.com,123456,Dentistry,847 635 1366 ,102 Business Center Dr,Reisterstown,25,21136,123456,2,biolablogistics.com
Dns Dental Labs,David E Johnson,,support@biolablogistics.com,123456,Dentistry,410 877 0051 ,1005 Brookwood Dr,Joppa,25,21085,123456,2,biolablogistics.com
Monumental Dental,,,support@biolablogistics.com,123456,Dentistry,410 787 1121,419 Crain Hwy S, Glen Burnie,25,21061,123456,2,biolablogistics.com
Ivan'S Dental Lab,,,support@biolablogistics.com,123456,Dentistry,301 843 1200,3601 Leonardtown Rd,Waldorf,25,20601,123456,2,biolablogistics.com
Rodriguez Dental Studio,Ali Rodriguez ,,support@biolablogistics.com,123456,Dentistry,301 649 6172 ,10705 Georgia Ave,Silver Spring,25,20902,123456,2,biolablogistics.com
Midatlantic Orthodontic Laboratory Corporation,Warren Etstin,,support@biolablogistics.com,123456,Dentistry,410 517 2000 ,9 Chartley Park Rd,Reisterstown,25,21136,123456,2,biolablogistics.com
Salem Crown Bridge, Roger Splaine,,support@biolablogistics.com,123456,Dentistry,301 475 5643 ,22225 Bull Rd,Leonardtown,25,20650,123456,2,biolablogistics.com
"Kwon Bae, Byung",Kwon Bae Byung,,support@biolablogistics.com,123456,Dentistry,240 314 0440 ,12011 Devilwood Dr,Rockville,25,20854,123456,2,biolablogistics.com
Easy Crown & Bridge,John Elms,,support@biolablogistics.com,123456,Dentistry,301 870 7484 ,6172 Humpback Whale Ct,Waldorf,25,20603,123456,2,biolablogistics.com
St of the Art D,David A. Pinsky,,support@biolablogistics.com,123456,Dentistry,240 683 8111 ,801 Pleasant Dr,Rockville,25,20850,123456,2,biolablogistics.com
Peter a Winkelman Dds Pa,,,support@biolablogistics.com,123456,Dentistry,301 434 1300,716 Piney Branch Rd,Silver Spring,25,20901,123456,2,biolablogistics.com
Pro Space Prn,Pamela Mauerhan,,support@biolablogistics.com,123456,Dentistry,443 612 9004 ,405 Frederick Rd,Baltimore,25,21228,123456,2,biolablogistics.com
Rogall Orthodontic Lab,Altraud Rogall Ms ,,support@biolablogistics.com,123456,Dentistry,301 424 0016 ,1747 Crestview Dr,Potomac,25,20854,123456,2,biolablogistics.com
Talbot Crown & Bridge Dental Lab,"Stephen W Chitty,",,support@biolablogistics.com,123456,Dentistry,410 820 7127,28247 Widgeon Ter, Easton,25,21601,123456,2,biolablogistics.com
Brisk Dental Lab Inc,,,support@biolablogistics.com,123456,Dentistry,410 833 0292 ,11 Bridlewood Ct,Owings Mills,25,21117,123456,2,biolablogistics.com
Kern Dental Lab Inc,,,support@biolablogistics.com,123456,Dentistry,410 761 2662 ,419 Crain Hwy S,Glen Burnie,25,21061,123456,2,biolablogistics.com
Md-Va Orthodontic Specialists,Darrell A Clark,,support@biolablogistics.com,123456,Dentistry,301 866 9850 ,45111 First Colony Way,California,25,20619,123456,2,biolablogistics.com
Frederick Dentures & Orthodontics Llc,Richard Kobbe,,support@biolablogistics.com,123456,Dentistry,301 694 6669 ,801 Toll House Ave Ste H1,Frederick,25,21701,123456,2,biolablogistics.com
Dentures Lab,Jonathan C Holder,,support@biolablogistics.com,123456,Dentistry,301 989 9384 ,13447 Nh Ave Ste 3,Silver Spring,25,20904,123456,2,biolablogistics.com
Artifex Lab,Randall Blackburn,,info@artifexlab.com,123456,Dentistry,703 751 2656,"101 South Whiting St, #107",Alexandria,,22304,123456,2,artifexlab.com
